# MagicaVoxel @ Ephtracy

# group
o 

# material
mtllib PG.mtl
usemtl palette

# normals
vn -1 0 0
vn 1 0 0
vn 0 0 1
vn 0 0 -1
vn 0 -1 0
vn 0 1 0

# texcoords
vt 0.841797 0.5
vt 0.958984 0.5
vt 0.962891 0.5
vt 0.986328 0.5

# verts
v -2 0 1
v -2 0 -1
v -2 0.3 1
v -2 0.3 -1
v -2 0.6 1
v -2 0.6 -1
v -2 0.9 1
v -2 0.9 -1
v -2 1 1
v -2 1 -1
v -1.9 0 1.1
v -1.9 0 1
v -1.9 0 -1
v -1.9 0 -1.1
v -1.9 0.3 1.1
v -1.9 0.3 1
v -1.9 0.3 -1
v -1.9 0.3 -1.1
v -1.9 0.6 1.1
v -1.9 0.6 1
v -1.9 0.6 -1
v -1.9 0.6 -1.1
v -1.9 0.9 1.1
v -1.9 0.9 1
v -1.9 0.9 -1
v -1.9 0.9 -1.1
v -1.9 1 1.1
v -1.9 1 1
v -1.9 1 -1
v -1.9 1 -1.1
v -1.8 0 -1.1
v -1.8 0 -1.2
v -1.8 0.3 -1.1
v -1.8 0.3 -1.2
v -1.8 0.6 -1.1
v -1.8 0.6 -1.2
v -1.8 0.9 1.2
v -1.8 0.9 1.1
v -1.8 0.9 -1.1
v -1.8 0.9 -1.2
v -1.8 1 1.2
v -1.8 1 1.1
v -1.8 1 -1.1
v -1.8 1 -1.2
v -1.7 0 1.3
v -1.7 0 1.1
v -1.7 0 -1.2
v -1.7 0 -1.3
v -1.7 0.3 1.3
v -1.7 0.3 1.1
v -1.7 0.3 -1.2
v -1.7 0.3 -1.3
v -1.7 0.6 1.3
v -1.7 0.6 1.1
v -1.7 0.6 -1.2
v -1.7 0.6 -1.3
v -1.7 0.9 1.3
v -1.7 0.9 1.2
v -1.7 0.9 1.1
v -1.7 0.9 -1.2
v -1.7 0.9 -1.3
v -1.7 1 1.3
v -1.7 1 1.2
v -1.7 1 -1.2
v -1.7 1 -1.3
v -1.6 0 1.4
v -1.6 0 1.3
v -1.6 0 -1.3
v -1.6 0 -1.4
v -1.6 0.3 1.4
v -1.6 0.3 1.3
v -1.6 0.3 -1.3
v -1.6 0.3 -1.4
v -1.6 0.6 1.4
v -1.6 0.6 1.3
v -1.6 0.6 -1.3
v -1.6 0.6 -1.4
v -1.6 0.9 1.4
v -1.6 0.9 1.3
v -1.6 0.9 -1.3
v -1.6 0.9 -1.4
v -1.6 1 1.4
v -1.6 1 1.3
v -1.6 1 -1.3
v -1.6 1 -1.4
v -1.5 0 1.5
v -1.5 0 1.4
v -1.5 0 -1.4
v -1.5 0 -1.5
v -1.5 0.3 1.5
v -1.5 0.3 1.4
v -1.5 0.3 -1.4
v -1.5 0.3 -1.5
v -1.5 0.6 1.5
v -1.5 0.6 1.4
v -1.5 0.6 -1.4
v -1.5 0.6 -1.5
v -1.5 0.9 1.5
v -1.5 0.9 1.4
v -1.5 0.9 -1.4
v -1.5 0.9 -1.5
v -1.5 1 1.5
v -1.5 1 1.4
v -1.5 1 -1.4
v -1.5 1 -1.5
v -1.4 0 1.6
v -1.4 0 1.5
v -1.4 0 -1.5
v -1.4 0 -1.6
v -1.4 0.3 1.6
v -1.4 0.3 1.5
v -1.4 0.3 -1.5
v -1.4 0.3 -1.6
v -1.4 0.6 1.6
v -1.4 0.6 1.5
v -1.4 0.6 -1.5
v -1.4 0.6 -1.6
v -1.4 0.9 1.6
v -1.4 0.9 1.5
v -1.4 0.9 -1.5
v -1.4 0.9 -1.6
v -1.4 1 1.6
v -1.4 1 1.5
v -1.4 1 -1.5
v -1.4 1 -1.6
v -1.3 0 1.7
v -1.3 0 1.6
v -1.3 0 -1.6
v -1.3 0 -1.7
v -1.3 0.3 1.7
v -1.3 0.3 1.6
v -1.3 0.3 -1.6
v -1.3 0.3 -1.7
v -1.3 0.6 1.7
v -1.3 0.6 1.6
v -1.3 0.6 -1.6
v -1.3 0.6 -1.7
v -1.3 0.9 1.7
v -1.3 0.9 1.6
v -1.3 0.9 -1.6
v -1.3 0.9 -1.7
v -1.3 1 1.7
v -1.3 1 1.6
v -1.3 1 -1.6
v -1.3 1 -1.7
v -1.2 0 1.8
v -1.2 0 1.7
v -1.2 0 -1.7
v -1.2 0 -1.8
v -1.2 0.3 1.8
v -1.2 0.3 1.7
v -1.2 0.3 -1.7
v -1.2 0.3 -1.8
v -1.2 0.6 1.8
v -1.2 0.6 1.7
v -1.2 0.6 -1.7
v -1.2 0.6 -1.8
v -1.2 0.9 1.8
v -1.2 0.9 1.7
v -1.2 0.9 -1.7
v -1.2 0.9 -1.8
v -1.2 1 1.8
v -1.2 1 1.7
v -1.2 1 -1.7
v -1.2 1 -1.8
v -1.1 0 1.9
v -1.1 0 1.8
v -1.1 0 -1.8
v -1.1 0 -1.9
v -1.1 0.3 1.9
v -1.1 0.3 1.8
v -1.1 0.3 -1.8
v -1.1 0.3 -1.9
v -1.1 0.6 1.9
v -1.1 0.6 1.8
v -1.1 0.6 -1.8
v -1.1 0.6 -1.9
v -1.1 0.9 1.9
v -1.1 0.9 1.8
v -1.1 0.9 -1.8
v -1.1 0.9 -1.9
v -1.1 1 1.9
v -1.1 1 1.8
v -1.1 1 -1.8
v -1.1 1 -1.9
v -1 0 2
v -1 0 1.9
v -1 0 -1.9
v -1 0 -2
v -1 0.3 2
v -1 0.3 1.9
v -1 0.3 -1.9
v -1 0.3 -2
v -1 0.6 2
v -1 0.6 1.9
v -1 0.6 -1.9
v -1 0.6 -2
v -1 0.9 2
v -1 0.9 1.9
v -1 0.9 -1.9
v -1 0.9 -2
v -1 1 2
v -1 1 1.9
v -1 1 -1.9
v -1 1 -2
v 0.8 0.9 -1.7
v 0.8 0.9 -1.8
v 0.8 1 -1.7
v 0.8 1 -1.8
v 1 0.9 -1.5
v 1 0.9 -1.7
v 1 1 -1.5
v 1 1 -1.7
v 1.1 0.9 -1.4
v 1.1 0.9 -1.5
v 1.1 1 -1.4
v 1.1 1 -1.5
v 1.2 0.9 -1.3
v 1.2 0.9 -1.4
v 1.2 1 -1.3
v 1.2 1 -1.4
v 1.3 0.9 -1.2
v 1.3 0.9 -1.3
v 1.3 1 -1.2
v 1.3 1 -1.3
v 1.5 0.9 -1.1
v 1.5 0.9 -1.2
v 1.5 1 -1.1
v 1.5 1 -1.2
v 1.6 0.9 -1
v 1.6 0.9 -1.1
v 1.6 1 -1
v 1.6 1 -1.1
v -1.5 0.9 -1
v -1.5 0.9 -1.1
v -1.5 1 -1
v -1.5 1 -1.1
v -1.4 0.9 -1.1
v -1.4 0.9 -1.4
v -1.4 1 -1.1
v -1.4 1 -1.4
v -1.2 0.9 -1.4
v -1.2 0.9 -1.5
v -1.2 1 -1.4
v -1.2 1 -1.5
v -1.1 0.9 -1.5
v -1.1 0.9 -1.6
v -1.1 1 -1.5
v -1.1 1 -1.6
v -1 0.9 -1.6
v -1 0.9 -1.7
v -1 1 -1.6
v -1 1 -1.7
v -0.8 0.9 -1.7
v -0.8 0.9 -1.8
v -0.8 1 -1.7
v -0.8 1 -1.8
v 1 0 2
v 1 0 1.9
v 1 0 -1.9
v 1 0 -2
v 1 0.3 2
v 1 0.3 1.9
v 1 0.3 -1.9
v 1 0.3 -2
v 1 0.6 2
v 1 0.6 1.9
v 1 0.6 -1.9
v 1 0.6 -2
v 1 0.9 2
v 1 0.9 1.9
v 1 0.9 -1.9
v 1 0.9 -2
v 1 1 2
v 1 1 1.9
v 1 1 -1.9
v 1 1 -2
v 1.1 0 1.9
v 1.1 0 1.8
v 1.1 0 -1.8
v 1.1 0 -1.9
v 1.1 0.3 1.9
v 1.1 0.3 1.8
v 1.1 0.3 -1.8
v 1.1 0.3 -1.9
v 1.1 0.6 1.9
v 1.1 0.6 1.8
v 1.1 0.6 -1.8
v 1.1 0.6 -1.9
v 1.1 0.9 1.9
v 1.1 0.9 1.8
v 1.1 0.9 -1.8
v 1.1 0.9 -1.9
v 1.1 1 1.9
v 1.1 1 1.8
v 1.1 1 -1.8
v 1.1 1 -1.9
v 1.2 0 1.8
v 1.2 0 1.7
v 1.2 0 -1.7
v 1.2 0 -1.8
v 1.2 0.3 1.8
v 1.2 0.3 1.7
v 1.2 0.3 -1.7
v 1.2 0.3 -1.8
v 1.2 0.6 1.8
v 1.2 0.6 1.7
v 1.2 0.6 -1.7
v 1.2 0.6 -1.8
v 1.2 0.9 1.8
v 1.2 0.9 1.7
v 1.2 0.9 -1.7
v 1.2 0.9 -1.8
v 1.2 1 1.8
v 1.2 1 1.7
v 1.2 1 -1.7
v 1.2 1 -1.8
v 1.3 0 1.7
v 1.3 0 1.6
v 1.3 0 -1.6
v 1.3 0 -1.7
v 1.3 0.3 1.7
v 1.3 0.3 1.6
v 1.3 0.3 -1.6
v 1.3 0.3 -1.7
v 1.3 0.6 1.7
v 1.3 0.6 1.6
v 1.3 0.6 -1.6
v 1.3 0.6 -1.7
v 1.3 0.9 1.7
v 1.3 0.9 1.6
v 1.3 0.9 -1.6
v 1.3 0.9 -1.7
v 1.3 1 1.7
v 1.3 1 1.6
v 1.3 1 -1.6
v 1.3 1 -1.7
v 1.4 0 1.6
v 1.4 0 1.5
v 1.4 0 -1.5
v 1.4 0 -1.6
v 1.4 0.3 1.6
v 1.4 0.3 1.5
v 1.4 0.3 -1.5
v 1.4 0.3 -1.6
v 1.4 0.6 1.6
v 1.4 0.6 1.5
v 1.4 0.6 -1.5
v 1.4 0.6 -1.6
v 1.4 0.9 1.6
v 1.4 0.9 1.5
v 1.4 0.9 -1.5
v 1.4 0.9 -1.6
v 1.4 1 1.6
v 1.4 1 1.5
v 1.4 1 -1.5
v 1.4 1 -1.6
v 1.5 0 1.5
v 1.5 0 1.4
v 1.5 0 -1.4
v 1.5 0 -1.5
v 1.5 0.3 1.5
v 1.5 0.3 1.4
v 1.5 0.3 -1.4
v 1.5 0.3 -1.5
v 1.5 0.6 1.5
v 1.5 0.6 1.4
v 1.5 0.6 -1.4
v 1.5 0.6 -1.5
v 1.5 0.9 1.5
v 1.5 0.9 1.4
v 1.5 0.9 -1.4
v 1.5 0.9 -1.5
v 1.5 1 1.5
v 1.5 1 1.4
v 1.5 1 -1.4
v 1.5 1 -1.5
v 1.6 0 1.4
v 1.6 0 1.3
v 1.6 0 -1.3
v 1.6 0 -1.4
v 1.6 0.3 1.4
v 1.6 0.3 1.3
v 1.6 0.3 -1.3
v 1.6 0.3 -1.4
v 1.6 0.6 1.4
v 1.6 0.6 1.3
v 1.6 0.6 -1.3
v 1.6 0.6 -1.4
v 1.6 0.9 1.4
v 1.6 0.9 1.3
v 1.6 0.9 -1.3
v 1.6 0.9 -1.4
v 1.6 1 1.4
v 1.6 1 1.3
v 1.6 1 -1.3
v 1.6 1 -1.4
v 1.7 0 1.3
v 1.7 0 1.2
v 1.7 0 -1.2
v 1.7 0 -1.3
v 1.7 0.3 1.3
v 1.7 0.3 1.2
v 1.7 0.3 -1.2
v 1.7 0.3 -1.3
v 1.7 0.6 1.3
v 1.7 0.6 1.2
v 1.7 0.6 -1.2
v 1.7 0.6 -1.3
v 1.7 0.9 1.3
v 1.7 0.9 1.2
v 1.7 0.9 -1.2
v 1.7 0.9 -1.3
v 1.7 1 1.3
v 1.7 1 1.2
v 1.7 1 -1.2
v 1.7 1 -1.3
v 1.8 0 1.2
v 1.8 0 1.1
v 1.8 0 -1.1
v 1.8 0 -1.2
v 1.8 0.3 1.2
v 1.8 0.3 1.1
v 1.8 0.3 -1.1
v 1.8 0.3 -1.2
v 1.8 0.6 1.2
v 1.8 0.6 1.1
v 1.8 0.6 -1.1
v 1.8 0.6 -1.2
v 1.8 0.9 1.2
v 1.8 0.9 1.1
v 1.8 0.9 -1.1
v 1.8 0.9 -1.2
v 1.8 1 1.2
v 1.8 1 1.1
v 1.8 1 -1.1
v 1.8 1 -1.2
v 1.9 0 1.1
v 1.9 0 1
v 1.9 0 -1
v 1.9 0 -1.1
v 1.9 0.3 1.1
v 1.9 0.3 1
v 1.9 0.3 -1
v 1.9 0.3 -1.1
v 1.9 0.6 1.1
v 1.9 0.6 1
v 1.9 0.6 -1
v 1.9 0.6 -1.1
v 1.9 0.9 1.1
v 1.9 0.9 1
v 1.9 0.9 -1
v 1.9 0.9 -1.1
v 1.9 1 1.1
v 1.9 1 1
v 1.9 1 -1
v 1.9 1 -1.1
v 2 0 1
v 2 0 -1
v 2 0.3 1
v 2 0.3 -1
v 2 0.6 1
v 2 0.6 -1
v 2 0.9 1
v 2 0.9 -1
v 2 1 1
v 2 1 -1
v -1 0 2
v -1 0.3 2
v -1 0.6 2
v -1 0.9 2
v -1 1 2
v 1 0 2
v 1 0.3 2
v 1 0.6 2
v 1 0.9 2
v 1 1 2
v -1.1 0 1.9
v -1.1 0.3 1.9
v -1.1 0.6 1.9
v -1.1 0.9 1.9
v -1.1 1 1.9
v -1 0 1.9
v -1 0.3 1.9
v -1 0.6 1.9
v -1 0.9 1.9
v -1 1 1.9
v 1 0 1.9
v 1 0.3 1.9
v 1 0.6 1.9
v 1 0.9 1.9
v 1 1 1.9
v 1.1 0 1.9
v 1.1 0.3 1.9
v 1.1 0.6 1.9
v 1.1 0.9 1.9
v 1.1 1 1.9
v -1.2 0 1.8
v -1.2 0.3 1.8
v -1.2 0.6 1.8
v -1.2 0.9 1.8
v -1.2 1 1.8
v -1.1 0 1.8
v -1.1 0.3 1.8
v -1.1 0.6 1.8
v -1.1 0.9 1.8
v -1.1 1 1.8
v 1.1 0 1.8
v 1.1 0.3 1.8
v 1.1 0.6 1.8
v 1.1 0.9 1.8
v 1.1 1 1.8
v 1.2 0 1.8
v 1.2 0.3 1.8
v 1.2 0.6 1.8
v 1.2 0.9 1.8
v 1.2 1 1.8
v -1.3 0 1.7
v -1.3 0.3 1.7
v -1.3 0.6 1.7
v -1.3 0.9 1.7
v -1.3 1 1.7
v -1.2 0 1.7
v -1.2 0.3 1.7
v -1.2 0.6 1.7
v -1.2 0.9 1.7
v -1.2 1 1.7
v 1.2 0 1.7
v 1.2 0.3 1.7
v 1.2 0.6 1.7
v 1.2 0.9 1.7
v 1.2 1 1.7
v 1.3 0 1.7
v 1.3 0.3 1.7
v 1.3 0.6 1.7
v 1.3 0.9 1.7
v 1.3 1 1.7
v -1.4 0 1.6
v -1.4 0.3 1.6
v -1.4 0.6 1.6
v -1.4 0.9 1.6
v -1.4 1 1.6
v -1.3 0 1.6
v -1.3 0.3 1.6
v -1.3 0.6 1.6
v -1.3 0.9 1.6
v -1.3 1 1.6
v 1.3 0 1.6
v 1.3 0.3 1.6
v 1.3 0.6 1.6
v 1.3 0.9 1.6
v 1.3 1 1.6
v 1.4 0 1.6
v 1.4 0.3 1.6
v 1.4 0.6 1.6
v 1.4 0.9 1.6
v 1.4 1 1.6
v -1.5 0 1.5
v -1.5 0.3 1.5
v -1.5 0.6 1.5
v -1.5 0.9 1.5
v -1.5 1 1.5
v -1.4 0 1.5
v -1.4 0.3 1.5
v -1.4 0.6 1.5
v -1.4 0.9 1.5
v -1.4 1 1.5
v 1.4 0 1.5
v 1.4 0.3 1.5
v 1.4 0.6 1.5
v 1.4 0.9 1.5
v 1.4 1 1.5
v 1.5 0 1.5
v 1.5 0.3 1.5
v 1.5 0.6 1.5
v 1.5 0.9 1.5
v 1.5 1 1.5
v -1.6 0 1.4
v -1.6 0.3 1.4
v -1.6 0.6 1.4
v -1.6 0.9 1.4
v -1.6 1 1.4
v -1.5 0 1.4
v -1.5 0.3 1.4
v -1.5 0.6 1.4
v -1.5 0.9 1.4
v -1.5 1 1.4
v 1.5 0 1.4
v 1.5 0.3 1.4
v 1.5 0.6 1.4
v 1.5 0.9 1.4
v 1.5 1 1.4
v 1.6 0 1.4
v 1.6 0.3 1.4
v 1.6 0.6 1.4
v 1.6 0.9 1.4
v 1.6 1 1.4
v -1.7 0 1.3
v -1.7 0.3 1.3
v -1.7 0.6 1.3
v -1.7 0.9 1.3
v -1.7 1 1.3
v -1.6 0 1.3
v -1.6 0.3 1.3
v -1.6 0.6 1.3
v -1.6 0.9 1.3
v -1.6 1 1.3
v 1.6 0 1.3
v 1.6 0.3 1.3
v 1.6 0.6 1.3
v 1.6 0.9 1.3
v 1.6 1 1.3
v 1.7 0 1.3
v 1.7 0.3 1.3
v 1.7 0.6 1.3
v 1.7 0.9 1.3
v 1.7 1 1.3
v -1.8 0.9 1.2
v -1.8 1 1.2
v -1.7 0.9 1.2
v -1.7 1 1.2
v 1.7 0 1.2
v 1.7 0.3 1.2
v 1.7 0.6 1.2
v 1.7 0.9 1.2
v 1.7 1 1.2
v 1.8 0 1.2
v 1.8 0.3 1.2
v 1.8 0.6 1.2
v 1.8 0.9 1.2
v 1.8 1 1.2
v -1.9 0 1.1
v -1.9 0.3 1.1
v -1.9 0.6 1.1
v -1.9 0.9 1.1
v -1.9 1 1.1
v -1.8 0.9 1.1
v -1.8 1 1.1
v -1.7 0 1.1
v -1.7 0.3 1.1
v -1.7 0.6 1.1
v -1.7 0.9 1.1
v 1.8 0 1.1
v 1.8 0.3 1.1
v 1.8 0.6 1.1
v 1.8 0.9 1.1
v 1.8 1 1.1
v 1.9 0 1.1
v 1.9 0.3 1.1
v 1.9 0.6 1.1
v 1.9 0.9 1.1
v 1.9 1 1.1
v -2 0 1
v -2 0.3 1
v -2 0.6 1
v -2 0.9 1
v -2 1 1
v -1.9 0 1
v -1.9 0.3 1
v -1.9 0.6 1
v -1.9 0.9 1
v -1.9 1 1
v 1.9 0 1
v 1.9 0.3 1
v 1.9 0.6 1
v 1.9 0.9 1
v 1.9 1 1
v 2 0 1
v 2 0.3 1
v 2 0.6 1
v 2 0.9 1
v 2 1 1
v -1.5 0.9 -1.1
v -1.5 1 -1.1
v -1.4 0.9 -1.1
v -1.4 1 -1.1
v 1.5 0.9 -1.1
v 1.5 1 -1.1
v 1.6 0.9 -1.1
v 1.6 1 -1.1
v 1.3 0.9 -1.2
v 1.3 1 -1.2
v 1.5 0.9 -1.2
v 1.5 1 -1.2
v 1.2 0.9 -1.3
v 1.2 1 -1.3
v 1.3 0.9 -1.3
v 1.3 1 -1.3
v -1.4 0.9 -1.4
v -1.4 1 -1.4
v -1.2 0.9 -1.4
v -1.2 1 -1.4
v 1.1 0.9 -1.4
v 1.1 1 -1.4
v 1.2 0.9 -1.4
v 1.2 1 -1.4
v -1.2 0.9 -1.5
v -1.2 1 -1.5
v -1.1 0.9 -1.5
v -1.1 1 -1.5
v 1 0.9 -1.5
v 1 1 -1.5
v 1.1 0.9 -1.5
v 1.1 1 -1.5
v -1.1 0.9 -1.6
v -1.1 1 -1.6
v -1 0.9 -1.6
v -1 1 -1.6
v -1 0.9 -1.7
v -1 1 -1.7
v -0.8 0.9 -1.7
v -0.8 1 -1.7
v 0.8 0.9 -1.7
v 0.8 1 -1.7
v 1 0.9 -1.7
v 1 1 -1.7
v -0.8 0.9 -1.8
v -0.8 1 -1.8
v 0.8 0.9 -1.8
v 0.8 1 -1.8
v -2 0 -1
v -2 0.3 -1
v -2 0.6 -1
v -2 0.9 -1
v -2 1 -1
v -1.9 0 -1
v -1.9 0.3 -1
v -1.9 0.6 -1
v -1.9 0.9 -1
v -1.9 1 -1
v -1.5 0.9 -1
v -1.5 1 -1
v 1.6 0.9 -1
v 1.6 1 -1
v 1.9 0 -1
v 1.9 0.3 -1
v 1.9 0.6 -1
v 1.9 0.9 -1
v 1.9 1 -1
v 2 0 -1
v 2 0.3 -1
v 2 0.6 -1
v 2 0.9 -1
v 2 1 -1
v -1.9 0 -1.1
v -1.9 0.3 -1.1
v -1.9 0.6 -1.1
v -1.9 0.9 -1.1
v -1.9 1 -1.1
v -1.8 0 -1.1
v -1.8 0.3 -1.1
v -1.8 0.6 -1.1
v -1.8 0.9 -1.1
v -1.8 1 -1.1
v 1.8 0 -1.1
v 1.8 0.3 -1.1
v 1.8 0.6 -1.1
v 1.8 0.9 -1.1
v 1.8 1 -1.1
v 1.9 0 -1.1
v 1.9 0.3 -1.1
v 1.9 0.6 -1.1
v 1.9 0.9 -1.1
v 1.9 1 -1.1
v -1.8 0 -1.2
v -1.8 0.3 -1.2
v -1.8 0.6 -1.2
v -1.8 0.9 -1.2
v -1.8 1 -1.2
v -1.7 0 -1.2
v -1.7 0.3 -1.2
v -1.7 0.6 -1.2
v -1.7 0.9 -1.2
v -1.7 1 -1.2
v 1.7 0 -1.2
v 1.7 0.3 -1.2
v 1.7 0.6 -1.2
v 1.7 0.9 -1.2
v 1.7 1 -1.2
v 1.8 0 -1.2
v 1.8 0.3 -1.2
v 1.8 0.6 -1.2
v 1.8 0.9 -1.2
v 1.8 1 -1.2
v -1.7 0 -1.3
v -1.7 0.3 -1.3
v -1.7 0.6 -1.3
v -1.7 0.9 -1.3
v -1.7 1 -1.3
v -1.6 0 -1.3
v -1.6 0.3 -1.3
v -1.6 0.6 -1.3
v -1.6 0.9 -1.3
v -1.6 1 -1.3
v 1.6 0 -1.3
v 1.6 0.3 -1.3
v 1.6 0.6 -1.3
v 1.6 0.9 -1.3
v 1.6 1 -1.3
v 1.7 0 -1.3
v 1.7 0.3 -1.3
v 1.7 0.6 -1.3
v 1.7 0.9 -1.3
v 1.7 1 -1.3
v -1.6 0 -1.4
v -1.6 0.3 -1.4
v -1.6 0.6 -1.4
v -1.6 0.9 -1.4
v -1.6 1 -1.4
v -1.5 0 -1.4
v -1.5 0.3 -1.4
v -1.5 0.6 -1.4
v -1.5 0.9 -1.4
v -1.5 1 -1.4
v 1.5 0 -1.4
v 1.5 0.3 -1.4
v 1.5 0.6 -1.4
v 1.5 0.9 -1.4
v 1.5 1 -1.4
v 1.6 0 -1.4
v 1.6 0.3 -1.4
v 1.6 0.6 -1.4
v 1.6 0.9 -1.4
v 1.6 1 -1.4
v -1.5 0 -1.5
v -1.5 0.3 -1.5
v -1.5 0.6 -1.5
v -1.5 0.9 -1.5
v -1.5 1 -1.5
v -1.4 0 -1.5
v -1.4 0.3 -1.5
v -1.4 0.6 -1.5
v -1.4 0.9 -1.5
v -1.4 1 -1.5
v 1.4 0 -1.5
v 1.4 0.3 -1.5
v 1.4 0.6 -1.5
v 1.4 0.9 -1.5
v 1.4 1 -1.5
v 1.5 0 -1.5
v 1.5 0.3 -1.5
v 1.5 0.6 -1.5
v 1.5 0.9 -1.5
v 1.5 1 -1.5
v -1.4 0 -1.6
v -1.4 0.3 -1.6
v -1.4 0.6 -1.6
v -1.4 0.9 -1.6
v -1.4 1 -1.6
v -1.3 0 -1.6
v -1.3 0.3 -1.6
v -1.3 0.6 -1.6
v -1.3 0.9 -1.6
v -1.3 1 -1.6
v 1.3 0 -1.6
v 1.3 0.3 -1.6
v 1.3 0.6 -1.6
v 1.3 0.9 -1.6
v 1.3 1 -1.6
v 1.4 0 -1.6
v 1.4 0.3 -1.6
v 1.4 0.6 -1.6
v 1.4 0.9 -1.6
v 1.4 1 -1.6
v -1.3 0 -1.7
v -1.3 0.3 -1.7
v -1.3 0.6 -1.7
v -1.3 0.9 -1.7
v -1.3 1 -1.7
v -1.2 0 -1.7
v -1.2 0.3 -1.7
v -1.2 0.6 -1.7
v -1.2 0.9 -1.7
v -1.2 1 -1.7
v 1.2 0 -1.7
v 1.2 0.3 -1.7
v 1.2 0.6 -1.7
v 1.2 0.9 -1.7
v 1.2 1 -1.7
v 1.3 0 -1.7
v 1.3 0.3 -1.7
v 1.3 0.6 -1.7
v 1.3 0.9 -1.7
v 1.3 1 -1.7
v -1.2 0 -1.8
v -1.2 0.3 -1.8
v -1.2 0.6 -1.8
v -1.2 0.9 -1.8
v -1.2 1 -1.8
v -1.1 0 -1.8
v -1.1 0.3 -1.8
v -1.1 0.6 -1.8
v -1.1 0.9 -1.8
v -1.1 1 -1.8
v 1.1 0 -1.8
v 1.1 0.3 -1.8
v 1.1 0.6 -1.8
v 1.1 0.9 -1.8
v 1.1 1 -1.8
v 1.2 0 -1.8
v 1.2 0.3 -1.8
v 1.2 0.6 -1.8
v 1.2 0.9 -1.8
v 1.2 1 -1.8
v -1.1 0 -1.9
v -1.1 0.3 -1.9
v -1.1 0.6 -1.9
v -1.1 0.9 -1.9
v -1.1 1 -1.9
v -1 0 -1.9
v -1 0.3 -1.9
v -1 0.6 -1.9
v -1 0.9 -1.9
v -1 1 -1.9
v 1 0 -1.9
v 1 0.3 -1.9
v 1 0.6 -1.9
v 1 0.9 -1.9
v 1 1 -1.9
v 1.1 0 -1.9
v 1.1 0.3 -1.9
v 1.1 0.6 -1.9
v 1.1 0.9 -1.9
v 1.1 1 -1.9
v -1 0 -2
v -1 0.3 -2
v -1 0.6 -2
v -1 0.9 -2
v -1 1 -2
v 1 0 -2
v 1 0.3 -2
v 1 0.6 -2
v 1 0.9 -2
v 1 1 -2
v -1 0 2
v 1 0 2
v -1.1 0 1.9
v -1 0 1.9
v 1 0 1.9
v 1.1 0 1.9
v -1.2 0 1.8
v -1.1 0 1.8
v 1.1 0 1.8
v 1.2 0 1.8
v -1.3 0 1.7
v -1.2 0 1.7
v 1.2 0 1.7
v 1.3 0 1.7
v -1.4 0 1.6
v -1.3 0 1.6
v 1.3 0 1.6
v 1.4 0 1.6
v -1.5 0 1.5
v -1.4 0 1.5
v 1.4 0 1.5
v 1.5 0 1.5
v -1.6 0 1.4
v -1.5 0 1.4
v 1.5 0 1.4
v 1.6 0 1.4
v -1.7 0 1.3
v -1.6 0 1.3
v 1.6 0 1.3
v 1.7 0 1.3
v 1.7 0 1.2
v 1.8 0 1.2
v -1.9 0 1.1
v -1.7 0 1.1
v 1.8 0 1.1
v 1.9 0 1.1
v -2 0 1
v -1.9 0 1
v 1.9 0 1
v 2 0 1
v -2 0 -1
v -1.9 0 -1
v 1.9 0 -1
v 2 0 -1
v -1.9 0 -1.1
v -1.8 0 -1.1
v 1.8 0 -1.1
v 1.9 0 -1.1
v -1.8 0 -1.2
v -1.7 0 -1.2
v 1.7 0 -1.2
v 1.8 0 -1.2
v -1.7 0 -1.3
v -1.6 0 -1.3
v 1.6 0 -1.3
v 1.7 0 -1.3
v -1.6 0 -1.4
v -1.5 0 -1.4
v 1.5 0 -1.4
v 1.6 0 -1.4
v -1.5 0 -1.5
v -1.4 0 -1.5
v 1.4 0 -1.5
v 1.5 0 -1.5
v -1.4 0 -1.6
v -1.3 0 -1.6
v 1.3 0 -1.6
v 1.4 0 -1.6
v -1.3 0 -1.7
v -1.2 0 -1.7
v 1.2 0 -1.7
v 1.3 0 -1.7
v -1.2 0 -1.8
v -1.1 0 -1.8
v 1.1 0 -1.8
v 1.2 0 -1.8
v -1.1 0 -1.9
v -1 0 -1.9
v 1 0 -1.9
v 1.1 0 -1.9
v -1 0 -2
v 1 0 -2
v -1.8 0.9 1.2
v -1.7 0.9 1.2
v -1.8 0.9 1.1
v -1.7 0.9 1.1
v -1.5 0.9 -1
v 1.6 0.9 -1
v -1.5 0.9 -1.1
v -1.4 0.9 -1.1
v 1.5 0.9 -1.1
v 1.6 0.9 -1.1
v 1.3 0.9 -1.2
v 1.5 0.9 -1.2
v 1.2 0.9 -1.3
v 1.3 0.9 -1.3
v -1.4 0.9 -1.4
v -1.2 0.9 -1.4
v 1.1 0.9 -1.4
v 1.2 0.9 -1.4
v -1.2 0.9 -1.5
v -1.1 0.9 -1.5
v 1 0.9 -1.5
v 1.1 0.9 -1.5
v -1.1 0.9 -1.6
v -1 0.9 -1.6
v -1 0.9 -1.7
v -0.8 0.9 -1.7
v 0.8 0.9 -1.7
v 1 0.9 -1.7
v -0.8 0.9 -1.8
v 0.8 0.9 -1.8
v -1 1 2
v 1 1 2
v -1.1 1 1.9
v -1 1 1.9
v 1 1 1.9
v 1.1 1 1.9
v -1.2 1 1.8
v -1.1 1 1.8
v 1.1 1 1.8
v 1.2 1 1.8
v -1.3 1 1.7
v -1.2 1 1.7
v 1.2 1 1.7
v 1.3 1 1.7
v -1.4 1 1.6
v -1.3 1 1.6
v 1.3 1 1.6
v 1.4 1 1.6
v -1.5 1 1.5
v -1.4 1 1.5
v 1.4 1 1.5
v 1.5 1 1.5
v -1.6 1 1.4
v -1.5 1 1.4
v -1.1 1 1.4
v -1 1 1.4
v -0.7 1 1.4
v -0.3 1 1.4
v 0.4 1 1.4
v 0.5 1 1.4
v 0.7 1 1.4
v 1.3 1 1.4
v 1.5 1 1.4
v 1.6 1 1.4
v -1.7 1 1.3
v -1.6 1 1.3
v -0.8 1 1.3
v -0.7 1 1.3
v -0.3 1 1.3
v -0.2 1 1.3
v 0.8 1 1.3
v 1.2 1 1.3
v 1.6 1 1.3
v 1.7 1 1.3
v -1.8 1 1.2
v -1.7 1 1.2
v 1.7 1 1.2
v 1.8 1 1.2
v -1.9 1 1.1
v -1.8 1 1.1
v 1.8 1 1.1
v 1.9 1 1.1
v -2 1 1
v -1.9 1 1
v -1.7 1 1
v -1.6 1 1
v 1.9 1 1
v 2 1 1
v -1.6 1 0.8
v -1.1 1 0.8
v -0.7 1 0.8
v -0.6 1 0.8
v -0.4 1 0.8
v -0.3 1 0.8
v -1.6 1 0.7
v -1 1 0.7
v -0.7 1 0.7
v -0.6 1 0.7
v -0.4 1 0.7
v -0.3 1 0.7
v 0.8 1 0.7
v 1.2 1 0.7
v -0.6 1 0.6
v -0.4 1 0.6
v 0.7 1 0.6
v 1.2 1 0.6
v 2.38419e-007 1 0.5
v 0.1 1 0.5
v -0.0999999 1 0.4
v 2.38419e-007 1 0.4
v 0.1 1 0.4
v -1.1 1 0.3
v -1 1 0.3
v -1.6 1 0.2
v -1.1 1 0.2
v 2.38419e-007 1 0.2
v 0.4 1 0.2
v -1.7 1 0.0999999
v -1 1 0.0999999
v -0.8 1 0.0999999
v -0.7 1 0.0999999
v -0.3 1 0.0999999
v -0.2 1 0.0999999
v -0.0999999 1 0.0999999
v 0.5 1 0.0999999
v 1.2 1 0.0999999
v 1.3 1 0.0999999
v -1.7 1 -0.2
v -1.6 1 -0.2
v -1.4 1 -0.2
v -1.3 1 -0.2
v -1.2 1 -0.2
v -0.8 1 -0.2
v -0.6 1 -0.2
v -0.4 1 -0.2
v 2.38419e-007 1 -0.2
v 0.2 1 -0.2
v 0.3 1 -0.2
v 0.4 1 -0.2
v 0.6 1 -0.2
v 0.8 1 -0.2
v 0.9 1 -0.2
v 1.3 1 -0.2
v 1.4 1 -0.2
v 1.8 1 -0.2
v -1.1 1 -0.3
v -0.9 1 -0.3
v -0.7 1 -0.3
v -0.6 1 -0.3
v -0.4 1 -0.3
v -0.3 1 -0.3
v -0.0999999 1 -0.3
v 2.38419e-007 1 -0.3
v 0.1 1 -0.3
v 0.5 1 -0.3
v 0.6 1 -0.3
v 0.7 1 -0.3
v 0.9 1 -0.3
v 1.2 1 -0.3
v 1.4 1 -0.3
v 1.7 1 -0.3
v -0.2 1 -0.4
v -0.0999999 1 -0.4
v 2.38419e-007 1 -0.4
v 1 1 -0.4
v 1.2 1 -0.4
v -1.6 1 -0.5
v -1.4 1 -0.5
v -1.1 1 -0.5
v -0.9 1 -0.5
v -0.6 1 -0.5
v -0.4 1 -0.5
v 0.9 1 -0.5
v 1 1 -0.5
v 1.1 1 -0.5
v 1.2 1 -0.5
v 1.4 1 -0.5
v 1.6 1 -0.5
v -1.6 1 -0.6
v -1.3 1 -0.6
v -1.2 1 -0.6
v -1.1 1 -0.6
v -1 1 -0.6
v -0.9 1 -0.6
v -0.6 1 -0.6
v -0.4 1 -0.6
v -0.2 1 -0.6
v -0.0999999 1 -0.6
v 2.38419e-007 1 -0.6
v 0.9 1 -0.6
v 1.1 1 -0.6
v 1.5 1 -0.6
v 1.6 1 -0.6
v -1.6 1 -0.7
v -1.3 1 -0.7
v -1.2 1 -0.7
v -1.1 1 -0.7
v -1 1 -0.7
v -0.0999999 1 -0.7
v 2.38419e-007 1 -0.7
v 0.1 1 -0.7
v 0.4 1 -0.7
v 0.5 1 -0.7
v 0.6 1 -0.7
v 0.9 1 -0.7
v 1.2 1 -0.7
v 1.5 1 -0.7
v 1.7 1 -0.7
v -1.7 1 -0.8
v -1.3 1 -0.8
v -1.2 1 -0.8
v -1.1 1 -0.8
v -0.9 1 -0.8
v -0.8 1 -0.8
v -0.7 1 -0.8
v -0.6 1 -0.8
v -0.4 1 -0.8
v -0.3 1 -0.8
v 2.38419e-007 1 -0.8
v 0.2 1 -0.8
v 0.3 1 -0.8
v 0.5 1 -0.8
v 0.7 1 -0.8
v 0.8 1 -0.8
v 0.9 1 -0.8
v 1.3 1 -0.8
v 1.4 1 -0.8
v 1.8 1 -0.8
v -2 1 -1
v -1.9 1 -1
v -1.5 1 -1
v 1.6 1 -1
v 1.9 1 -1
v 2 1 -1
v -1.9 1 -1.1
v -1.8 1 -1.1
v -1.5 1 -1.1
v -1.4 1 -1.1
v 1.5 1 -1.1
v 1.6 1 -1.1
v 1.8 1 -1.1
v 1.9 1 -1.1
v -1.8 1 -1.2
v -1.7 1 -1.2
v 1.3 1 -1.2
v 1.5 1 -1.2
v 1.7 1 -1.2
v 1.8 1 -1.2
v -1.7 1 -1.3
v -1.6 1 -1.3
v 1.2 1 -1.3
v 1.3 1 -1.3
v 1.6 1 -1.3
v 1.7 1 -1.3
v -1.6 1 -1.4
v -1.5 1 -1.4
v -1.4 1 -1.4
v -1.2 1 -1.4
v 1.1 1 -1.4
v 1.2 1 -1.4
v 1.5 1 -1.4
v 1.6 1 -1.4
v -1.5 1 -1.5
v -1.4 1 -1.5
v -1.2 1 -1.5
v -1.1 1 -1.5
v 1 1 -1.5
v 1.1 1 -1.5
v 1.4 1 -1.5
v 1.5 1 -1.5
v -1.4 1 -1.6
v -1.3 1 -1.6
v -1.1 1 -1.6
v -1 1 -1.6
v 1.3 1 -1.6
v 1.4 1 -1.6
v -1.3 1 -1.7
v -1.2 1 -1.7
v -1 1 -1.7
v -0.8 1 -1.7
v 0.8 1 -1.7
v 1 1 -1.7
v 1.2 1 -1.7
v 1.3 1 -1.7
v -1.2 1 -1.8
v -1.1 1 -1.8
v -0.8 1 -1.8
v 0.8 1 -1.8
v 1.1 1 -1.8
v 1.2 1 -1.8
v -1.1 1 -1.9
v -1 1 -1.9
v 1 1 -1.9
v 1.1 1 -1.9
v -1 1 -2
v 1 1 -2

# faces
f 3/4/1 2/4/1 1/4/1
f 4/4/1 2/4/1 3/4/1
f 5/3/1 4/3/1 3/3/1
f 6/3/1 4/3/1 5/3/1
f 7/4/1 6/4/1 5/4/1
f 8/4/1 6/4/1 7/4/1
f 9/1/1 8/1/1 7/1/1
f 10/1/1 8/1/1 9/1/1
f 15/4/1 12/4/1 11/4/1
f 16/4/1 12/4/1 15/4/1
f 17/4/1 14/4/1 13/4/1
f 18/4/1 14/4/1 17/4/1
f 19/3/1 16/3/1 15/3/1
f 20/3/1 16/3/1 19/3/1
f 21/3/1 18/3/1 17/3/1
f 22/3/1 18/3/1 21/3/1
f 23/4/1 20/4/1 19/4/1
f 24/4/1 20/4/1 23/4/1
f 25/4/1 22/4/1 21/4/1
f 26/4/1 22/4/1 25/4/1
f 27/1/1 24/1/1 23/1/1
f 28/1/1 24/1/1 27/1/1
f 29/1/1 26/1/1 25/1/1
f 30/1/1 26/1/1 29/1/1
f 33/4/1 32/4/1 31/4/1
f 34/4/1 32/4/1 33/4/1
f 35/3/1 34/3/1 33/3/1
f 36/3/1 34/3/1 35/3/1
f 39/4/1 36/4/1 35/4/1
f 40/4/1 36/4/1 39/4/1
f 41/1/1 38/1/1 37/1/1
f 42/1/1 38/1/1 41/1/1
f 43/1/1 40/1/1 39/1/1
f 44/1/1 40/1/1 43/1/1
f 49/4/1 46/4/1 45/4/1
f 50/4/1 46/4/1 49/4/1
f 51/4/1 48/4/1 47/4/1
f 52/4/1 48/4/1 51/4/1
f 53/3/1 50/3/1 49/3/1
f 54/3/1 50/3/1 53/3/1
f 55/3/1 52/3/1 51/3/1
f 56/3/1 52/3/1 55/3/1
f 57/4/1 54/4/1 53/4/1
f 58/4/1 54/4/1 57/4/1
f 59/4/1 54/4/1 58/4/1
f 60/4/1 56/4/1 55/4/1
f 61/4/1 56/4/1 60/4/1
f 62/1/1 58/1/1 57/1/1
f 63/1/1 58/1/1 62/1/1
f 64/1/1 61/1/1 60/1/1
f 65/1/1 61/1/1 64/1/1
f 70/4/1 67/4/1 66/4/1
f 71/4/1 67/4/1 70/4/1
f 72/4/1 69/4/1 68/4/1
f 73/4/1 69/4/1 72/4/1
f 74/3/1 71/3/1 70/3/1
f 75/3/1 71/3/1 74/3/1
f 76/3/1 73/3/1 72/3/1
f 77/3/1 73/3/1 76/3/1
f 78/4/1 75/4/1 74/4/1
f 79/4/1 75/4/1 78/4/1
f 80/4/1 77/4/1 76/4/1
f 81/4/1 77/4/1 80/4/1
f 82/1/1 79/1/1 78/1/1
f 83/1/1 79/1/1 82/1/1
f 84/1/1 81/1/1 80/1/1
f 85/1/1 81/1/1 84/1/1
f 90/4/1 87/4/1 86/4/1
f 91/4/1 87/4/1 90/4/1
f 92/4/1 89/4/1 88/4/1
f 93/4/1 89/4/1 92/4/1
f 94/3/1 91/3/1 90/3/1
f 95/3/1 91/3/1 94/3/1
f 96/3/1 93/3/1 92/3/1
f 97/3/1 93/3/1 96/3/1
f 98/4/1 95/4/1 94/4/1
f 99/4/1 95/4/1 98/4/1
f 100/4/1 97/4/1 96/4/1
f 101/4/1 97/4/1 100/4/1
f 102/1/1 99/1/1 98/1/1
f 103/1/1 99/1/1 102/1/1
f 104/1/1 101/1/1 100/1/1
f 105/1/1 101/1/1 104/1/1
f 110/4/1 107/4/1 106/4/1
f 111/4/1 107/4/1 110/4/1
f 112/4/1 109/4/1 108/4/1
f 113/4/1 109/4/1 112/4/1
f 114/3/1 111/3/1 110/3/1
f 115/3/1 111/3/1 114/3/1
f 116/3/1 113/3/1 112/3/1
f 117/3/1 113/3/1 116/3/1
f 118/4/1 115/4/1 114/4/1
f 119/4/1 115/4/1 118/4/1
f 120/4/1 117/4/1 116/4/1
f 121/4/1 117/4/1 120/4/1
f 122/1/1 119/1/1 118/1/1
f 123/1/1 119/1/1 122/1/1
f 124/1/1 121/1/1 120/1/1
f 125/1/1 121/1/1 124/1/1
f 130/4/1 127/4/1 126/4/1
f 131/4/1 127/4/1 130/4/1
f 132/4/1 129/4/1 128/4/1
f 133/4/1 129/4/1 132/4/1
f 134/3/1 131/3/1 130/3/1
f 135/3/1 131/3/1 134/3/1
f 136/3/1 133/3/1 132/3/1
f 137/3/1 133/3/1 136/3/1
f 138/4/1 135/4/1 134/4/1
f 139/4/1 135/4/1 138/4/1
f 140/4/1 137/4/1 136/4/1
f 141/4/1 137/4/1 140/4/1
f 142/1/1 139/1/1 138/1/1
f 143/1/1 139/1/1 142/1/1
f 144/1/1 141/1/1 140/1/1
f 145/1/1 141/1/1 144/1/1
f 150/4/1 147/4/1 146/4/1
f 151/4/1 147/4/1 150/4/1
f 152/4/1 149/4/1 148/4/1
f 153/4/1 149/4/1 152/4/1
f 154/3/1 151/3/1 150/3/1
f 155/3/1 151/3/1 154/3/1
f 156/3/1 153/3/1 152/3/1
f 157/3/1 153/3/1 156/3/1
f 158/4/1 155/4/1 154/4/1
f 159/4/1 155/4/1 158/4/1
f 160/4/1 157/4/1 156/4/1
f 161/4/1 157/4/1 160/4/1
f 162/1/1 159/1/1 158/1/1
f 163/1/1 159/1/1 162/1/1
f 164/1/1 161/1/1 160/1/1
f 165/1/1 161/1/1 164/1/1
f 170/4/1 167/4/1 166/4/1
f 171/4/1 167/4/1 170/4/1
f 172/4/1 169/4/1 168/4/1
f 173/4/1 169/4/1 172/4/1
f 174/3/1 171/3/1 170/3/1
f 175/3/1 171/3/1 174/3/1
f 176/3/1 173/3/1 172/3/1
f 177/3/1 173/3/1 176/3/1
f 178/4/1 175/4/1 174/4/1
f 179/4/1 175/4/1 178/4/1
f 180/4/1 177/4/1 176/4/1
f 181/4/1 177/4/1 180/4/1
f 182/1/1 179/1/1 178/1/1
f 183/1/1 179/1/1 182/1/1
f 184/1/1 181/1/1 180/1/1
f 185/1/1 181/1/1 184/1/1
f 190/4/1 187/4/1 186/4/1
f 191/4/1 187/4/1 190/4/1
f 192/4/1 189/4/1 188/4/1
f 193/4/1 189/4/1 192/4/1
f 194/3/1 191/3/1 190/3/1
f 195/3/1 191/3/1 194/3/1
f 196/3/1 193/3/1 192/3/1
f 197/3/1 193/3/1 196/3/1
f 198/4/1 195/4/1 194/4/1
f 199/4/1 195/4/1 198/4/1
f 200/4/1 197/4/1 196/4/1
f 201/4/1 197/4/1 200/4/1
f 202/1/1 199/1/1 198/1/1
f 203/1/1 199/1/1 202/1/1
f 204/1/1 201/1/1 200/1/1
f 205/1/1 201/1/1 204/1/1
f 208/1/1 207/1/1 206/1/1
f 209/1/1 207/1/1 208/1/1
f 212/1/1 211/1/1 210/1/1
f 213/1/1 211/1/1 212/1/1
f 216/1/1 215/1/1 214/1/1
f 217/1/1 215/1/1 216/1/1
f 220/1/1 219/1/1 218/1/1
f 221/1/1 219/1/1 220/1/1
f 224/1/1 223/1/1 222/1/1
f 225/1/1 223/1/1 224/1/1
f 228/1/1 227/1/1 226/1/1
f 229/1/1 227/1/1 228/1/1
f 232/1/1 231/1/1 230/1/1
f 233/1/1 231/1/1 232/1/1
f 234/1/2 235/1/2 236/1/2
f 236/1/2 235/1/2 237/1/2
f 238/1/2 239/1/2 240/1/2
f 240/1/2 239/1/2 241/1/2
f 242/1/2 243/1/2 244/1/2
f 244/1/2 243/1/2 245/1/2
f 246/1/2 247/1/2 248/1/2
f 248/1/2 247/1/2 249/1/2
f 250/1/2 251/1/2 252/1/2
f 252/1/2 251/1/2 253/1/2
f 254/1/2 255/1/2 256/1/2
f 256/1/2 255/1/2 257/1/2
f 258/4/2 259/4/2 262/4/2
f 262/4/2 259/4/2 263/4/2
f 260/4/2 261/4/2 264/4/2
f 264/4/2 261/4/2 265/4/2
f 262/3/2 263/3/2 266/3/2
f 266/3/2 263/3/2 267/3/2
f 264/3/2 265/3/2 268/3/2
f 268/3/2 265/3/2 269/3/2
f 266/4/2 267/4/2 270/4/2
f 270/4/2 267/4/2 271/4/2
f 268/4/2 269/4/2 272/4/2
f 272/4/2 269/4/2 273/4/2
f 270/1/2 271/1/2 274/1/2
f 274/1/2 271/1/2 275/1/2
f 272/1/2 273/1/2 276/1/2
f 276/1/2 273/1/2 277/1/2
f 278/4/2 279/4/2 282/4/2
f 282/4/2 279/4/2 283/4/2
f 280/4/2 281/4/2 284/4/2
f 284/4/2 281/4/2 285/4/2
f 282/3/2 283/3/2 286/3/2
f 286/3/2 283/3/2 287/3/2
f 284/3/2 285/3/2 288/3/2
f 288/3/2 285/3/2 289/3/2
f 286/4/2 287/4/2 290/4/2
f 290/4/2 287/4/2 291/4/2
f 288/4/2 289/4/2 292/4/2
f 292/4/2 289/4/2 293/4/2
f 290/1/2 291/1/2 294/1/2
f 294/1/2 291/1/2 295/1/2
f 292/1/2 293/1/2 296/1/2
f 296/1/2 293/1/2 297/1/2
f 298/4/2 299/4/2 302/4/2
f 302/4/2 299/4/2 303/4/2
f 300/4/2 301/4/2 304/4/2
f 304/4/2 301/4/2 305/4/2
f 302/3/2 303/3/2 306/3/2
f 306/3/2 303/3/2 307/3/2
f 304/3/2 305/3/2 308/3/2
f 308/3/2 305/3/2 309/3/2
f 306/4/2 307/4/2 310/4/2
f 310/4/2 307/4/2 311/4/2
f 308/4/2 309/4/2 312/4/2
f 312/4/2 309/4/2 313/4/2
f 310/1/2 311/1/2 314/1/2
f 314/1/2 311/1/2 315/1/2
f 312/1/2 313/1/2 316/1/2
f 316/1/2 313/1/2 317/1/2
f 318/4/2 319/4/2 322/4/2
f 322/4/2 319/4/2 323/4/2
f 320/4/2 321/4/2 324/4/2
f 324/4/2 321/4/2 325/4/2
f 322/3/2 323/3/2 326/3/2
f 326/3/2 323/3/2 327/3/2
f 324/3/2 325/3/2 328/3/2
f 328/3/2 325/3/2 329/3/2
f 326/4/2 327/4/2 330/4/2
f 330/4/2 327/4/2 331/4/2
f 328/4/2 329/4/2 332/4/2
f 332/4/2 329/4/2 333/4/2
f 330/1/2 331/1/2 334/1/2
f 334/1/2 331/1/2 335/1/2
f 332/1/2 333/1/2 336/1/2
f 336/1/2 333/1/2 337/1/2
f 338/4/2 339/4/2 342/4/2
f 342/4/2 339/4/2 343/4/2
f 340/4/2 341/4/2 344/4/2
f 344/4/2 341/4/2 345/4/2
f 342/3/2 343/3/2 346/3/2
f 346/3/2 343/3/2 347/3/2
f 344/3/2 345/3/2 348/3/2
f 348/3/2 345/3/2 349/3/2
f 346/4/2 347/4/2 350/4/2
f 350/4/2 347/4/2 351/4/2
f 348/4/2 349/4/2 352/4/2
f 352/4/2 349/4/2 353/4/2
f 350/1/2 351/1/2 354/1/2
f 354/1/2 351/1/2 355/1/2
f 352/1/2 353/1/2 356/1/2
f 356/1/2 353/1/2 357/1/2
f 358/4/2 359/4/2 362/4/2
f 362/4/2 359/4/2 363/4/2
f 360/4/2 361/4/2 364/4/2
f 364/4/2 361/4/2 365/4/2
f 362/3/2 363/3/2 366/3/2
f 366/3/2 363/3/2 367/3/2
f 364/3/2 365/3/2 368/3/2
f 368/3/2 365/3/2 369/3/2
f 366/4/2 367/4/2 370/4/2
f 370/4/2 367/4/2 371/4/2
f 368/4/2 369/4/2 372/4/2
f 372/4/2 369/4/2 373/4/2
f 370/1/2 371/1/2 374/1/2
f 374/1/2 371/1/2 375/1/2
f 372/1/2 373/1/2 376/1/2
f 376/1/2 373/1/2 377/1/2
f 378/4/2 379/4/2 382/4/2
f 382/4/2 379/4/2 383/4/2
f 380/4/2 381/4/2 384/4/2
f 384/4/2 381/4/2 385/4/2
f 382/3/2 383/3/2 386/3/2
f 386/3/2 383/3/2 387/3/2
f 384/3/2 385/3/2 388/3/2
f 388/3/2 385/3/2 389/3/2
f 386/4/2 387/4/2 390/4/2
f 390/4/2 387/4/2 391/4/2
f 388/4/2 389/4/2 392/4/2
f 392/4/2 389/4/2 393/4/2
f 390/1/2 391/1/2 394/1/2
f 394/1/2 391/1/2 395/1/2
f 392/1/2 393/1/2 396/1/2
f 396/1/2 393/1/2 397/1/2
f 398/4/2 399/4/2 402/4/2
f 402/4/2 399/4/2 403/4/2
f 400/4/2 401/4/2 404/4/2
f 404/4/2 401/4/2 405/4/2
f 402/3/2 403/3/2 406/3/2
f 406/3/2 403/3/2 407/3/2
f 404/3/2 405/3/2 408/3/2
f 408/3/2 405/3/2 409/3/2
f 406/4/2 407/4/2 410/4/2
f 410/4/2 407/4/2 411/4/2
f 408/4/2 409/4/2 412/4/2
f 412/4/2 409/4/2 413/4/2
f 410/1/2 411/1/2 414/1/2
f 414/1/2 411/1/2 415/1/2
f 412/1/2 413/1/2 416/1/2
f 416/1/2 413/1/2 417/1/2
f 418/4/2 419/4/2 422/4/2
f 422/4/2 419/4/2 423/4/2
f 420/4/2 421/4/2 424/4/2
f 424/4/2 421/4/2 425/4/2
f 422/3/2 423/3/2 426/3/2
f 426/3/2 423/3/2 427/3/2
f 424/3/2 425/3/2 428/3/2
f 428/3/2 425/3/2 429/3/2
f 426/4/2 427/4/2 430/4/2
f 430/4/2 427/4/2 431/4/2
f 428/4/2 429/4/2 432/4/2
f 432/4/2 429/4/2 433/4/2
f 430/1/2 431/1/2 434/1/2
f 434/1/2 431/1/2 435/1/2
f 432/1/2 433/1/2 436/1/2
f 436/1/2 433/1/2 437/1/2
f 438/4/2 439/4/2 442/4/2
f 442/4/2 439/4/2 443/4/2
f 440/4/2 441/4/2 444/4/2
f 444/4/2 441/4/2 445/4/2
f 442/3/2 443/3/2 446/3/2
f 446/3/2 443/3/2 447/3/2
f 444/3/2 445/3/2 448/3/2
f 448/3/2 445/3/2 449/3/2
f 446/4/2 447/4/2 450/4/2
f 450/4/2 447/4/2 451/4/2
f 448/4/2 449/4/2 452/4/2
f 452/4/2 449/4/2 453/4/2
f 450/1/2 451/1/2 454/1/2
f 454/1/2 451/1/2 455/1/2
f 452/1/2 453/1/2 456/1/2
f 456/1/2 453/1/2 457/1/2
f 458/4/2 459/4/2 460/4/2
f 460/4/2 459/4/2 461/4/2
f 460/3/2 461/3/2 462/3/2
f 462/3/2 461/3/2 463/3/2
f 462/4/2 463/4/2 464/4/2
f 464/4/2 463/4/2 465/4/2
f 464/1/2 465/1/2 466/1/2
f 466/1/2 465/1/2 467/1/2
f 473/4/3 469/4/3 468/4/3
f 474/3/3 470/3/3 469/3/3
f 474/4/3 469/4/3 473/4/3
f 475/4/3 471/4/3 470/4/3
f 475/3/3 470/3/3 474/3/3
f 476/1/3 472/1/3 471/1/3
f 476/4/3 471/4/3 475/4/3
f 477/1/3 472/1/3 476/1/3
f 483/4/3 479/4/3 478/4/3
f 484/3/3 480/3/3 479/3/3
f 484/4/3 479/4/3 483/4/3
f 485/4/3 481/4/3 480/4/3
f 485/3/3 480/3/3 484/3/3
f 486/1/3 482/1/3 481/1/3
f 486/4/3 481/4/3 485/4/3
f 487/1/3 482/1/3 486/1/3
f 493/4/3 489/4/3 488/4/3
f 494/3/3 490/3/3 489/3/3
f 494/4/3 489/4/3 493/4/3
f 495/4/3 491/4/3 490/4/3
f 495/3/3 490/3/3 494/3/3
f 496/1/3 492/1/3 491/1/3
f 496/4/3 491/4/3 495/4/3
f 497/1/3 492/1/3 496/1/3
f 503/4/3 499/4/3 498/4/3
f 504/3/3 500/3/3 499/3/3
f 504/4/3 499/4/3 503/4/3
f 505/4/3 501/4/3 500/4/3
f 505/3/3 500/3/3 504/3/3
f 506/1/3 502/1/3 501/1/3
f 506/4/3 501/4/3 505/4/3
f 507/1/3 502/1/3 506/1/3
f 513/4/3 509/4/3 508/4/3
f 514/3/3 510/3/3 509/3/3
f 514/4/3 509/4/3 513/4/3
f 515/4/3 511/4/3 510/4/3
f 515/3/3 510/3/3 514/3/3
f 516/1/3 512/1/3 511/1/3
f 516/4/3 511/4/3 515/4/3
f 517/1/3 512/1/3 516/1/3
f 523/4/3 519/4/3 518/4/3
f 524/3/3 520/3/3 519/3/3
f 524/4/3 519/4/3 523/4/3
f 525/4/3 521/4/3 520/4/3
f 525/3/3 520/3/3 524/3/3
f 526/1/3 522/1/3 521/1/3
f 526/4/3 521/4/3 525/4/3
f 527/1/3 522/1/3 526/1/3
f 533/4/3 529/4/3 528/4/3
f 534/3/3 530/3/3 529/3/3
f 534/4/3 529/4/3 533/4/3
f 535/4/3 531/4/3 530/4/3
f 535/3/3 530/3/3 534/3/3
f 536/1/3 532/1/3 531/1/3
f 536/4/3 531/4/3 535/4/3
f 537/1/3 532/1/3 536/1/3
f 543/4/3 539/4/3 538/4/3
f 544/3/3 540/3/3 539/3/3
f 544/4/3 539/4/3 543/4/3
f 545/4/3 541/4/3 540/4/3
f 545/3/3 540/3/3 544/3/3
f 546/1/3 542/1/3 541/1/3
f 546/4/3 541/4/3 545/4/3
f 547/1/3 542/1/3 546/1/3
f 553/4/3 549/4/3 548/4/3
f 554/3/3 550/3/3 549/3/3
f 554/4/3 549/4/3 553/4/3
f 555/4/3 551/4/3 550/4/3
f 555/3/3 550/3/3 554/3/3
f 556/1/3 552/1/3 551/1/3
f 556/4/3 551/4/3 555/4/3
f 557/1/3 552/1/3 556/1/3
f 563/4/3 559/4/3 558/4/3
f 564/3/3 560/3/3 559/3/3
f 564/4/3 559/4/3 563/4/3
f 565/4/3 561/4/3 560/4/3
f 565/3/3 560/3/3 564/3/3
f 566/1/3 562/1/3 561/1/3
f 566/4/3 561/4/3 565/4/3
f 567/1/3 562/1/3 566/1/3
f 573/4/3 569/4/3 568/4/3
f 574/3/3 570/3/3 569/3/3
f 574/4/3 569/4/3 573/4/3
f 575/4/3 571/4/3 570/4/3
f 575/3/3 570/3/3 574/3/3
f 576/1/3 572/1/3 571/1/3
f 576/4/3 571/4/3 575/4/3
f 577/1/3 572/1/3 576/1/3
f 583/4/3 579/4/3 578/4/3
f 584/3/3 580/3/3 579/3/3
f 584/4/3 579/4/3 583/4/3
f 585/4/3 581/4/3 580/4/3
f 585/3/3 580/3/3 584/3/3
f 586/1/3 582/1/3 581/1/3
f 586/4/3 581/4/3 585/4/3
f 587/1/3 582/1/3 586/1/3
f 593/4/3 589/4/3 588/4/3
f 594/3/3 590/3/3 589/3/3
f 594/4/3 589/4/3 593/4/3
f 595/4/3 591/4/3 590/4/3
f 595/3/3 590/3/3 594/3/3
f 596/1/3 592/1/3 591/1/3
f 596/4/3 591/4/3 595/4/3
f 597/1/3 592/1/3 596/1/3
f 603/4/3 599/4/3 598/4/3
f 604/3/3 600/3/3 599/3/3
f 604/4/3 599/4/3 603/4/3
f 605/4/3 601/4/3 600/4/3
f 605/3/3 600/3/3 604/3/3
f 606/1/3 602/1/3 601/1/3
f 606/4/3 601/4/3 605/4/3
f 607/1/3 602/1/3 606/1/3
f 613/4/3 609/4/3 608/4/3
f 614/3/3 610/3/3 609/3/3
f 614/4/3 609/4/3 613/4/3
f 615/4/3 611/4/3 610/4/3
f 615/3/3 610/3/3 614/3/3
f 616/1/3 612/1/3 611/1/3
f 616/4/3 611/4/3 615/4/3
f 617/1/3 612/1/3 616/1/3
f 620/1/3 619/1/3 618/1/3
f 621/1/3 619/1/3 620/1/3
f 627/4/3 623/4/3 622/4/3
f 628/3/3 624/3/3 623/3/3
f 628/4/3 623/4/3 627/4/3
f 629/4/3 625/4/3 624/4/3
f 629/3/3 624/3/3 628/3/3
f 630/1/3 626/1/3 625/1/3
f 630/4/3 625/4/3 629/4/3
f 631/1/3 626/1/3 630/1/3
f 637/4/3 635/4/3 634/4/3
f 637/1/3 636/1/3 635/1/3
f 638/1/3 636/1/3 637/1/3
f 639/4/3 633/4/3 632/4/3
f 640/3/3 634/3/3 633/3/3
f 640/4/3 633/4/3 639/4/3
f 641/4/3 637/4/3 634/4/3
f 641/3/3 634/3/3 640/3/3
f 642/4/3 637/4/3 641/4/3
f 648/4/3 644/4/3 643/4/3
f 649/3/3 645/3/3 644/3/3
f 649/4/3 644/4/3 648/4/3
f 650/4/3 646/4/3 645/4/3
f 650/3/3 645/3/3 649/3/3
f 651/1/3 647/1/3 646/1/3
f 651/4/3 646/4/3 650/4/3
f 652/1/3 647/1/3 651/1/3
f 658/4/3 654/4/3 653/4/3
f 659/3/3 655/3/3 654/3/3
f 659/4/3 654/4/3 658/4/3
f 660/4/3 656/4/3 655/4/3
f 660/3/3 655/3/3 659/3/3
f 661/1/3 657/1/3 656/1/3
f 661/4/3 656/4/3 660/4/3
f 662/1/3 657/1/3 661/1/3
f 668/4/3 664/4/3 663/4/3
f 669/3/3 665/3/3 664/3/3
f 669/4/3 664/4/3 668/4/3
f 670/4/3 666/4/3 665/4/3
f 670/3/3 665/3/3 669/3/3
f 671/1/3 667/1/3 666/1/3
f 671/4/3 666/4/3 670/4/3
f 672/1/3 667/1/3 671/1/3
f 675/1/3 674/1/3 673/1/3
f 676/1/3 674/1/3 675/1/3
f 679/1/3 678/1/3 677/1/3
f 680/1/3 678/1/3 679/1/3
f 683/1/3 682/1/3 681/1/3
f 684/1/3 682/1/3 683/1/3
f 687/1/3 686/1/3 685/1/3
f 688/1/3 686/1/3 687/1/3
f 691/1/3 690/1/3 689/1/3
f 692/1/3 690/1/3 691/1/3
f 695/1/3 694/1/3 693/1/3
f 696/1/3 694/1/3 695/1/3
f 699/1/3 698/1/3 697/1/3
f 700/1/3 698/1/3 699/1/3
f 703/1/3 702/1/3 701/1/3
f 704/1/3 702/1/3 703/1/3
f 707/1/3 706/1/3 705/1/3
f 708/1/3 706/1/3 707/1/3
f 711/1/3 710/1/3 709/1/3
f 712/1/3 710/1/3 711/1/3
f 715/1/3 714/1/3 713/1/3
f 716/1/3 714/1/3 715/1/3
f 719/1/3 718/1/3 717/1/3
f 720/1/3 718/1/3 719/1/3
f 721/4/4 722/4/4 726/4/4
f 722/3/4 723/3/4 727/3/4
f 726/4/4 722/4/4 727/4/4
f 723/4/4 724/4/4 728/4/4
f 727/3/4 723/3/4 728/3/4
f 724/1/4 725/1/4 729/1/4
f 728/4/4 724/4/4 729/4/4
f 729/1/4 725/1/4 730/1/4
f 731/1/4 732/1/4 733/1/4
f 733/1/4 732/1/4 734/1/4
f 735/4/4 736/4/4 740/4/4
f 736/3/4 737/3/4 741/3/4
f 740/4/4 736/4/4 741/4/4
f 737/4/4 738/4/4 742/4/4
f 741/3/4 737/3/4 742/3/4
f 738/1/4 739/1/4 743/1/4
f 742/4/4 738/4/4 743/4/4
f 743/1/4 739/1/4 744/1/4
f 745/4/4 746/4/4 750/4/4
f 746/3/4 747/3/4 751/3/4
f 750/4/4 746/4/4 751/4/4
f 747/4/4 748/4/4 752/4/4
f 751/3/4 747/3/4 752/3/4
f 748/1/4 749/1/4 753/1/4
f 752/4/4 748/4/4 753/4/4
f 753/1/4 749/1/4 754/1/4
f 755/4/4 756/4/4 760/4/4
f 756/3/4 757/3/4 761/3/4
f 760/4/4 756/4/4 761/4/4
f 757/4/4 758/4/4 762/4/4
f 761/3/4 757/3/4 762/3/4
f 758/1/4 759/1/4 763/1/4
f 762/4/4 758/4/4 763/4/4
f 763/1/4 759/1/4 764/1/4
f 765/4/4 766/4/4 770/4/4
f 766/3/4 767/3/4 771/3/4
f 770/4/4 766/4/4 771/4/4
f 767/4/4 768/4/4 772/4/4
f 771/3/4 767/3/4 772/3/4
f 768/1/4 769/1/4 773/1/4
f 772/4/4 768/4/4 773/4/4
f 773/1/4 769/1/4 774/1/4
f 775/4/4 776/4/4 780/4/4
f 776/3/4 777/3/4 781/3/4
f 780/4/4 776/4/4 781/4/4
f 777/4/4 778/4/4 782/4/4
f 781/3/4 777/3/4 782/3/4
f 778/1/4 779/1/4 783/1/4
f 782/4/4 778/4/4 783/4/4
f 783/1/4 779/1/4 784/1/4
f 785/4/4 786/4/4 790/4/4
f 786/3/4 787/3/4 791/3/4
f 790/4/4 786/4/4 791/4/4
f 787/4/4 788/4/4 792/4/4
f 791/3/4 787/3/4 792/3/4
f 788/1/4 789/1/4 793/1/4
f 792/4/4 788/4/4 793/4/4
f 793/1/4 789/1/4 794/1/4
f 795/4/4 796/4/4 800/4/4
f 796/3/4 797/3/4 801/3/4
f 800/4/4 796/4/4 801/4/4
f 797/4/4 798/4/4 802/4/4
f 801/3/4 797/3/4 802/3/4
f 798/1/4 799/1/4 803/1/4
f 802/4/4 798/4/4 803/4/4
f 803/1/4 799/1/4 804/1/4
f 805/4/4 806/4/4 810/4/4
f 806/3/4 807/3/4 811/3/4
f 810/4/4 806/4/4 811/4/4
f 807/4/4 808/4/4 812/4/4
f 811/3/4 807/3/4 812/3/4
f 808/1/4 809/1/4 813/1/4
f 812/4/4 808/4/4 813/4/4
f 813/1/4 809/1/4 814/1/4
f 815/4/4 816/4/4 820/4/4
f 816/3/4 817/3/4 821/3/4
f 820/4/4 816/4/4 821/4/4
f 817/4/4 818/4/4 822/4/4
f 821/3/4 817/3/4 822/3/4
f 818/1/4 819/1/4 823/1/4
f 822/4/4 818/4/4 823/4/4
f 823/1/4 819/1/4 824/1/4
f 825/4/4 826/4/4 830/4/4
f 826/3/4 827/3/4 831/3/4
f 830/4/4 826/4/4 831/4/4
f 827/4/4 828/4/4 832/4/4
f 831/3/4 827/3/4 832/3/4
f 828/1/4 829/1/4 833/1/4
f 832/4/4 828/4/4 833/4/4
f 833/1/4 829/1/4 834/1/4
f 835/4/4 836/4/4 840/4/4
f 836/3/4 837/3/4 841/3/4
f 840/4/4 836/4/4 841/4/4
f 837/4/4 838/4/4 842/4/4
f 841/3/4 837/3/4 842/3/4
f 838/1/4 839/1/4 843/1/4
f 842/4/4 838/4/4 843/4/4
f 843/1/4 839/1/4 844/1/4
f 845/4/4 846/4/4 850/4/4
f 846/3/4 847/3/4 851/3/4
f 850/4/4 846/4/4 851/4/4
f 847/4/4 848/4/4 852/4/4
f 851/3/4 847/3/4 852/3/4
f 848/1/4 849/1/4 853/1/4
f 852/4/4 848/4/4 853/4/4
f 853/1/4 849/1/4 854/1/4
f 855/4/4 856/4/4 860/4/4
f 856/3/4 857/3/4 861/3/4
f 860/4/4 856/4/4 861/4/4
f 857/4/4 858/4/4 862/4/4
f 861/3/4 857/3/4 862/3/4
f 858/1/4 859/1/4 863/1/4
f 862/4/4 858/4/4 863/4/4
f 863/1/4 859/1/4 864/1/4
f 865/4/4 866/4/4 870/4/4
f 866/3/4 867/3/4 871/3/4
f 870/4/4 866/4/4 871/4/4
f 867/4/4 868/4/4 872/4/4
f 871/3/4 867/3/4 872/3/4
f 868/1/4 869/1/4 873/1/4
f 872/4/4 868/4/4 873/4/4
f 873/1/4 869/1/4 874/1/4
f 875/4/4 876/4/4 880/4/4
f 876/3/4 877/3/4 881/3/4
f 880/4/4 876/4/4 881/4/4
f 877/4/4 878/4/4 882/4/4
f 881/3/4 877/3/4 882/3/4
f 878/1/4 879/1/4 883/1/4
f 882/4/4 878/4/4 883/4/4
f 883/1/4 879/1/4 884/1/4
f 885/4/4 886/4/4 890/4/4
f 886/3/4 887/3/4 891/3/4
f 890/4/4 886/4/4 891/4/4
f 887/4/4 888/4/4 892/4/4
f 891/3/4 887/3/4 892/3/4
f 888/1/4 889/1/4 893/1/4
f 892/4/4 888/4/4 893/4/4
f 893/1/4 889/1/4 894/1/4
f 895/4/4 896/4/4 900/4/4
f 896/3/4 897/3/4 901/3/4
f 900/4/4 896/4/4 901/4/4
f 897/4/4 898/4/4 902/4/4
f 901/3/4 897/3/4 902/3/4
f 898/1/4 899/1/4 903/1/4
f 902/4/4 898/4/4 903/4/4
f 903/1/4 899/1/4 904/1/4
f 905/4/4 906/4/4 910/4/4
f 906/3/4 907/3/4 911/3/4
f 910/4/4 906/4/4 911/4/4
f 907/4/4 908/4/4 912/4/4
f 911/3/4 907/3/4 912/3/4
f 908/1/4 909/1/4 913/1/4
f 912/4/4 908/4/4 913/4/4
f 913/1/4 909/1/4 914/1/4
f 915/4/4 916/4/4 920/4/4
f 916/3/4 917/3/4 921/3/4
f 920/4/4 916/4/4 921/4/4
f 917/4/4 918/4/4 922/4/4
f 921/3/4 917/3/4 922/3/4
f 918/1/4 919/1/4 923/1/4
f 922/4/4 918/4/4 923/4/4
f 923/1/4 919/1/4 924/1/4
f 925/4/4 926/4/4 930/4/4
f 926/3/4 927/3/4 931/3/4
f 930/4/4 926/4/4 931/4/4
f 927/4/4 928/4/4 932/4/4
f 931/3/4 927/3/4 932/3/4
f 928/1/4 929/1/4 933/1/4
f 932/4/4 928/4/4 933/4/4
f 933/1/4 929/1/4 934/1/4
f 938/4/5 936/4/5 935/4/5
f 939/4/5 936/4/5 938/4/5
f 942/4/5 938/4/5 937/4/5
f 942/4/5 940/4/5 939/4/5
f 942/4/5 939/4/5 938/4/5
f 943/4/5 940/4/5 942/4/5
f 946/4/5 942/4/5 941/4/5
f 946/4/5 944/4/5 943/4/5
f 946/4/5 943/4/5 942/4/5
f 947/4/5 944/4/5 946/4/5
f 950/4/5 946/4/5 945/4/5
f 950/4/5 948/4/5 947/4/5
f 950/4/5 947/4/5 946/4/5
f 951/4/5 948/4/5 950/4/5
f 954/4/5 950/4/5 949/4/5
f 954/4/5 952/4/5 951/4/5
f 954/4/5 951/4/5 950/4/5
f 955/4/5 952/4/5 954/4/5
f 958/4/5 954/4/5 953/4/5
f 958/4/5 956/4/5 955/4/5
f 958/4/5 955/4/5 954/4/5
f 959/4/5 956/4/5 958/4/5
f 962/4/5 958/4/5 957/4/5
f 962/4/5 960/4/5 959/4/5
f 962/4/5 959/4/5 958/4/5
f 963/4/5 960/4/5 962/4/5
f 965/4/5 962/4/5 961/4/5
f 965/4/5 964/4/5 963/4/5
f 965/4/5 963/4/5 962/4/5
f 968/4/5 965/4/5 961/4/5
f 968/4/5 966/4/5 965/4/5
f 969/4/5 966/4/5 968/4/5
f 972/4/5 968/4/5 967/4/5
f 972/4/5 970/4/5 969/4/5
f 972/4/5 969/4/5 968/4/5
f 973/4/5 970/4/5 972/4/5
f 975/4/5 972/4/5 971/4/5
f 975/4/5 974/4/5 973/4/5
f 975/4/5 973/4/5 972/4/5
f 976/4/5 974/4/5 975/4/5
f 977/4/5 974/4/5 976/4/5
f 978/4/5 974/4/5 977/4/5
f 979/4/5 977/4/5 976/4/5
f 980/4/5 977/4/5 979/4/5
f 981/4/5 977/4/5 980/4/5
f 982/4/5 977/4/5 981/4/5
f 983/4/5 981/4/5 980/4/5
f 984/4/5 981/4/5 983/4/5
f 985/4/5 981/4/5 984/4/5
f 986/4/5 981/4/5 985/4/5
f 987/4/5 985/4/5 984/4/5
f 988/4/5 985/4/5 987/4/5
f 989/4/5 985/4/5 988/4/5
f 990/4/5 985/4/5 989/4/5
f 991/4/5 989/4/5 988/4/5
f 992/4/5 989/4/5 991/4/5
f 993/4/5 989/4/5 992/4/5
f 994/4/5 989/4/5 993/4/5
f 995/4/5 993/4/5 992/4/5
f 996/4/5 993/4/5 995/4/5
f 997/4/5 993/4/5 996/4/5
f 998/4/5 993/4/5 997/4/5
f 999/4/5 997/4/5 996/4/5
f 1000/4/5 997/4/5 999/4/5
f 1001/4/5 997/4/5 1000/4/5
f 1002/4/5 997/4/5 1001/4/5
f 1003/4/5 1001/4/5 1000/4/5
f 1004/4/5 1001/4/5 1003/4/5
f 1005/4/5 1001/4/5 1004/4/5
f 1006/4/5 1001/4/5 1005/4/5
f 1007/4/5 1005/4/5 1004/4/5
f 1008/4/5 1005/4/5 1007/4/5
f 1009/4/5 1005/4/5 1008/4/5
f 1010/4/5 1005/4/5 1009/4/5
f 1011/4/5 1009/4/5 1008/4/5
f 1012/4/5 1009/4/5 1011/4/5
f 1013/4/5 1009/4/5 1012/4/5
f 1014/4/5 1009/4/5 1013/4/5
f 1015/4/5 1013/4/5 1012/4/5
f 1016/4/5 1013/4/5 1015/4/5
f 1019/1/5 1018/1/5 1017/1/5
f 1020/1/5 1018/1/5 1019/1/5
f 1021/3/6 1022/3/6 1023/3/6
f 1023/3/6 1022/3/6 1024/3/6
f 1024/3/6 1022/3/6 1025/3/6
f 1025/3/6 1022/3/6 1026/3/6
f 1024/3/6 1025/3/6 1027/3/6
f 1027/3/6 1025/3/6 1028/3/6
f 1024/3/6 1027/3/6 1029/3/6
f 1029/3/6 1027/3/6 1030/3/6
f 1024/3/6 1029/3/6 1031/3/6
f 1031/3/6 1029/3/6 1032/3/6
f 1032/3/6 1029/3/6 1033/3/6
f 1033/3/6 1029/3/6 1034/3/6
f 1032/3/6 1033/3/6 1035/3/6
f 1035/3/6 1033/3/6 1036/3/6
f 1036/3/6 1033/3/6 1037/3/6
f 1037/3/6 1033/3/6 1038/3/6
f 1036/3/6 1037/3/6 1039/3/6
f 1039/3/6 1037/3/6 1040/3/6
f 1040/3/6 1037/3/6 1041/3/6
f 1041/3/6 1037/3/6 1042/3/6
f 1042/3/6 1037/3/6 1043/3/6
f 1043/3/6 1037/3/6 1044/3/6
f 1042/3/6 1043/3/6 1045/3/6
f 1045/3/6 1043/3/6 1046/3/6
f 1047/1/6 1048/1/6 1050/1/6
f 1050/1/6 1048/1/6 1051/1/6
f 1049/1/6 1050/1/6 1054/1/6
f 1051/1/6 1052/1/6 1054/1/6
f 1050/1/6 1051/1/6 1054/1/6
f 1054/1/6 1052/1/6 1055/1/6
f 1053/1/6 1054/1/6 1058/1/6
f 1055/1/6 1056/1/6 1058/1/6
f 1054/1/6 1055/1/6 1058/1/6
f 1058/1/6 1056/1/6 1059/1/6
f 1057/1/6 1058/1/6 1062/1/6
f 1059/1/6 1060/1/6 1062/1/6
f 1058/1/6 1059/1/6 1062/1/6
f 1062/1/6 1060/1/6 1063/1/6
f 1061/1/6 1062/1/6 1066/1/6
f 1063/1/6 1064/1/6 1066/1/6
f 1062/1/6 1063/1/6 1066/1/6
f 1066/1/6 1064/1/6 1067/1/6
f 1065/1/6 1066/1/6 1070/1/6
f 1067/1/6 1068/1/6 1070/1/6
f 1066/1/6 1067/1/6 1070/1/6
f 1070/1/6 1068/1/6 1071/1/6
f 1071/1/6 1068/1/6 1072/1/6
f 1072/1/6 1068/1/6 1073/1/6
f 1073/1/6 1068/1/6 1074/1/6
f 1074/1/6 1068/1/6 1075/1/6
f 1075/1/6 1068/1/6 1076/1/6
f 1076/1/6 1068/1/6 1077/1/6
f 1077/1/6 1068/1/6 1078/1/6
f 1078/1/6 1068/1/6 1079/1/6
f 1069/1/6 1070/1/6 1082/1/6
f 1070/1/6 1071/1/6 1082/1/6
f 1072/1/6 1073/1/6 1083/1/6
f 1073/2/6 1074/2/6 1084/2/6
f 1083/1/6 1073/1/6 1084/1/6
f 1074/1/6 1075/1/6 1085/1/6
f 1084/2/6 1074/2/6 1085/2/6
f 1085/1/6 1075/1/6 1086/1/6
f 1077/2/6 1078/2/6 1087/2/6
f 1087/2/6 1078/2/6 1088/2/6
f 1079/1/6 1080/1/6 1089/1/6
f 1078/1/6 1079/1/6 1089/1/6
f 1081/1/6 1082/1/6 1092/1/6
f 1089/1/6 1090/1/6 1093/1/6
f 1091/1/6 1092/1/6 1096/1/6
f 1093/1/6 1094/1/6 1097/1/6
f 1095/1/6 1096/1/6 1100/1/6
f 1092/1/6 1082/1/6 1101/1/6
f 1096/1/6 1092/1/6 1101/1/6
f 1100/1/6 1096/1/6 1101/1/6
f 1082/1/6 1071/1/6 1102/1/6
f 1101/1/6 1082/1/6 1102/1/6
f 1097/1/6 1098/1/6 1103/1/6
f 1102/1/6 1071/1/6 1105/1/6
f 1101/2/6 1102/2/6 1105/2/6
f 1071/2/6 1072/2/6 1106/2/6
f 1105/1/6 1071/1/6 1106/1/6
f 1083/2/6 1084/2/6 1107/2/6
f 1084/1/6 1085/1/6 1107/1/6
f 1107/1/6 1085/1/6 1108/1/6
f 1108/1/6 1085/1/6 1109/1/6
f 1085/2/6 1086/2/6 1110/2/6
f 1109/1/6 1085/1/6 1110/1/6
f 1101/2/6 1105/2/6 1111/2/6
f 1105/2/6 1106/2/6 1111/2/6
f 1072/1/6 1083/1/6 1112/1/6
f 1111/2/6 1106/2/6 1112/2/6
f 1106/2/6 1072/2/6 1112/2/6
f 1107/2/6 1108/2/6 1113/2/6
f 1083/2/6 1107/2/6 1113/2/6
f 1108/1/6 1109/1/6 1114/1/6
f 1113/2/6 1108/2/6 1114/2/6
f 1109/2/6 1110/2/6 1115/2/6
f 1114/1/6 1109/1/6 1115/1/6
f 1110/2/6 1086/2/6 1116/2/6
f 1115/2/6 1110/2/6 1116/2/6
f 1087/1/6 1088/1/6 1117/1/6
f 1077/2/6 1087/2/6 1117/2/6
f 1088/2/6 1078/2/6 1118/2/6
f 1117/1/6 1088/1/6 1118/1/6
f 1114/2/6 1115/2/6 1119/2/6
f 1113/1/6 1114/1/6 1119/1/6
f 1115/1/6 1116/1/6 1120/1/6
f 1119/2/6 1115/2/6 1120/2/6
f 1077/2/6 1117/2/6 1121/2/6
f 1076/1/6 1077/1/6 1121/1/6
f 1117/2/6 1118/2/6 1121/2/6
f 1118/2/6 1078/2/6 1122/2/6
f 1121/2/6 1118/2/6 1122/2/6
f 1086/1/6 1075/1/6 1123/1/6
f 1123/1/6 1075/1/6 1124/1/6
f 1086/1/6 1123/1/6 1125/1/6
f 1123/2/6 1124/2/6 1126/2/6
f 1125/1/6 1123/1/6 1126/1/6
f 1124/1/6 1075/1/6 1127/1/6
f 1126/2/6 1124/2/6 1127/2/6
f 1111/1/6 1112/1/6 1128/1/6
f 1112/1/6 1083/1/6 1129/1/6
f 1128/1/6 1112/1/6 1129/1/6
f 1101/2/6 1111/2/6 1130/2/6
f 1111/1/6 1128/1/6 1130/1/6
f 1128/2/6 1129/2/6 1131/2/6
f 1130/1/6 1128/1/6 1131/1/6
f 1125/2/6 1126/2/6 1132/2/6
f 1126/1/6 1127/1/6 1132/1/6
f 1075/2/6 1076/2/6 1133/2/6
f 1132/1/6 1127/1/6 1133/1/6
f 1127/1/6 1075/1/6 1133/1/6
f 1101/2/6 1130/2/6 1134/2/6
f 1100/1/6 1101/1/6 1134/1/6
f 1130/2/6 1131/2/6 1134/2/6
f 1099/1/6 1100/1/6 1134/1/6
f 1129/1/6 1083/1/6 1135/1/6
f 1134/2/6 1131/2/6 1135/2/6
f 1131/2/6 1129/2/6 1135/2/6
f 1083/2/6 1113/2/6 1136/2/6
f 1135/1/6 1083/1/6 1136/1/6
f 1119/1/6 1120/1/6 1137/1/6
f 1136/2/6 1113/2/6 1137/2/6
f 1113/1/6 1119/1/6 1137/1/6
f 1120/1/6 1116/1/6 1138/1/6
f 1137/1/6 1120/1/6 1138/1/6
f 1116/2/6 1086/2/6 1138/2/6
f 1086/1/6 1125/1/6 1139/1/6
f 1138/2/6 1086/2/6 1139/2/6
f 1125/2/6 1132/2/6 1140/2/6
f 1139/1/6 1125/1/6 1140/1/6
f 1132/2/6 1133/2/6 1140/2/6
f 1076/1/6 1121/1/6 1141/1/6
f 1140/2/6 1133/2/6 1141/2/6
f 1133/2/6 1076/2/6 1141/2/6
f 1121/1/6 1122/1/6 1141/1/6
f 1122/2/6 1078/2/6 1142/2/6
f 1141/1/6 1122/1/6 1142/1/6
f 1093/1/6 1097/1/6 1143/1/6
f 1142/2/6 1078/2/6 1143/2/6
f 1103/1/6 1104/1/6 1143/1/6
f 1089/1/6 1093/1/6 1143/1/6
f 1097/1/6 1103/1/6 1143/1/6
f 1078/1/6 1089/1/6 1143/1/6
f 1136/1/6 1137/1/6 1144/1/6
f 1141/1/6 1142/1/6 1144/1/6
f 1142/1/6 1143/1/6 1144/1/6
f 1134/1/6 1135/1/6 1144/1/6
f 1137/1/6 1138/1/6 1144/1/6
f 1139/1/6 1140/1/6 1144/1/6
f 1099/1/6 1134/1/6 1144/1/6
f 1140/1/6 1141/1/6 1144/1/6
f 1135/1/6 1136/1/6 1144/1/6
f 1138/1/6 1139/1/6 1144/1/6
f 1144/1/6 1143/1/6 1145/1/6
f 1145/1/6 1143/1/6 1146/1/6
f 1146/1/6 1143/1/6 1147/1/6
f 1147/1/6 1143/1/6 1148/1/6
f 1148/1/6 1143/1/6 1149/1/6
f 1149/1/6 1143/1/6 1150/1/6
f 1150/1/6 1143/1/6 1151/1/6
f 1151/1/6 1143/1/6 1152/1/6
f 1152/1/6 1143/1/6 1153/1/6
f 1153/1/6 1143/1/6 1154/1/6
f 1154/1/6 1143/1/6 1155/1/6
f 1155/1/6 1143/1/6 1156/1/6
f 1156/1/6 1143/1/6 1157/1/6
f 1157/1/6 1143/1/6 1158/1/6
f 1143/1/6 1104/1/6 1159/1/6
f 1158/1/6 1143/1/6 1159/1/6
f 1159/1/6 1104/1/6 1160/1/6
f 1160/1/6 1104/1/6 1161/1/6
f 1148/2/6 1149/2/6 1162/2/6
f 1162/2/6 1149/2/6 1163/2/6
f 1149/1/6 1150/1/6 1164/1/6
f 1150/2/6 1151/2/6 1165/2/6
f 1164/1/6 1150/1/6 1165/1/6
f 1151/1/6 1152/1/6 1166/1/6
f 1165/2/6 1151/2/6 1166/2/6
f 1166/1/6 1152/1/6 1167/1/6
f 1167/1/6 1152/1/6 1168/1/6
f 1152/2/6 1153/2/6 1169/2/6
f 1168/1/6 1152/1/6 1169/1/6
f 1169/2/6 1153/2/6 1170/2/6
f 1155/1/6 1156/1/6 1171/1/6
f 1156/2/6 1157/2/6 1172/2/6
f 1171/1/6 1156/1/6 1172/1/6
f 1172/2/6 1157/2/6 1173/2/6
f 1157/1/6 1158/1/6 1174/1/6
f 1158/2/6 1159/2/6 1174/2/6
f 1174/2/6 1159/2/6 1175/2/6
f 1159/1/6 1160/1/6 1176/1/6
f 1160/2/6 1161/2/6 1176/2/6
f 1176/2/6 1161/2/6 1177/2/6
f 1167/1/6 1168/1/6 1178/1/6
f 1168/2/6 1169/2/6 1179/2/6
f 1178/1/6 1168/1/6 1179/1/6
f 1169/1/6 1170/1/6 1180/1/6
f 1179/2/6 1169/2/6 1180/2/6
f 1174/1/6 1175/1/6 1181/1/6
f 1175/2/6 1159/2/6 1182/2/6
f 1181/1/6 1175/1/6 1182/1/6
f 1144/2/6 1145/2/6 1183/2/6
f 1145/1/6 1146/1/6 1183/1/6
f 1146/2/6 1147/2/6 1184/2/6
f 1183/1/6 1146/1/6 1184/1/6
f 1148/2/6 1162/2/6 1185/2/6
f 1162/1/6 1163/1/6 1185/1/6
f 1163/2/6 1149/2/6 1186/2/6
f 1185/1/6 1163/1/6 1186/1/6
f 1164/2/6 1165/2/6 1187/2/6
f 1165/1/6 1166/1/6 1187/1/6
f 1166/2/6 1167/2/6 1188/2/6
f 1187/1/6 1166/1/6 1188/1/6
f 1174/1/6 1181/1/6 1189/1/6
f 1157/1/6 1174/1/6 1189/1/6
f 1181/2/6 1182/2/6 1190/2/6
f 1189/1/6 1181/1/6 1190/1/6
f 1190/2/6 1182/2/6 1191/2/6
f 1182/2/6 1159/2/6 1192/2/6
f 1191/2/6 1182/2/6 1192/2/6
f 1159/1/6 1176/1/6 1193/1/6
f 1176/1/6 1177/1/6 1193/1/6
f 1193/1/6 1177/1/6 1194/1/6
f 1144/2/6 1183/2/6 1195/2/6
f 1183/2/6 1184/2/6 1195/2/6
f 1147/1/6 1148/1/6 1196/1/6
f 1195/2/6 1184/2/6 1196/2/6
f 1184/2/6 1147/2/6 1196/2/6
f 1148/2/6 1185/2/6 1197/2/6
f 1196/1/6 1148/1/6 1197/1/6
f 1185/2/6 1186/2/6 1197/2/6
f 1197/2/6 1186/2/6 1198/2/6
f 1198/2/6 1186/2/6 1199/2/6
f 1186/2/6 1149/2/6 1200/2/6
f 1199/2/6 1186/2/6 1200/2/6
f 1164/2/6 1187/2/6 1201/2/6
f 1187/2/6 1188/2/6 1201/2/6
f 1188/2/6 1167/2/6 1202/2/6
f 1201/2/6 1188/2/6 1202/2/6
f 1167/1/6 1178/1/6 1203/1/6
f 1178/2/6 1179/2/6 1203/2/6
f 1179/1/6 1180/1/6 1204/1/6
f 1203/2/6 1179/2/6 1204/2/6
f 1180/1/6 1170/1/6 1205/1/6
f 1204/1/6 1180/1/6 1205/1/6
f 1190/2/6 1191/2/6 1206/2/6
f 1157/1/6 1189/1/6 1206/1/6
f 1189/2/6 1190/2/6 1206/2/6
f 1191/1/6 1192/1/6 1207/1/6
f 1206/2/6 1191/2/6 1207/2/6
f 1193/2/6 1194/2/6 1208/2/6
f 1194/1/6 1177/1/6 1209/1/6
f 1208/2/6 1194/2/6 1209/2/6
f 1144/2/6 1195/2/6 1210/2/6
f 1195/1/6 1196/1/6 1210/1/6
f 1197/1/6 1198/1/6 1210/1/6
f 1196/1/6 1197/1/6 1210/1/6
f 1210/1/6 1198/1/6 1211/1/6
f 1211/1/6 1198/1/6 1212/1/6
f 1198/2/6 1199/2/6 1213/2/6
f 1212/1/6 1198/1/6 1213/1/6
f 1199/1/6 1200/1/6 1214/1/6
f 1213/2/6 1199/2/6 1214/2/6
f 1204/2/6 1205/2/6 1215/2/6
f 1203/1/6 1204/1/6 1215/1/6
f 1205/1/6 1170/1/6 1216/1/6
f 1215/2/6 1205/2/6 1216/2/6
f 1170/2/6 1153/2/6 1217/2/6
f 1216/1/6 1170/1/6 1217/1/6
f 1154/2/6 1155/2/6 1218/2/6
f 1155/1/6 1171/1/6 1218/1/6
f 1171/2/6 1172/2/6 1219/2/6
f 1218/1/6 1171/1/6 1219/1/6
f 1172/1/6 1173/1/6 1220/1/6
f 1219/2/6 1172/2/6 1220/2/6
f 1206/1/6 1207/1/6 1221/1/6
f 1157/1/6 1206/1/6 1221/1/6
f 1207/1/6 1192/1/6 1222/1/6
f 1221/1/6 1207/1/6 1222/1/6
f 1192/2/6 1159/2/6 1222/2/6
f 1193/2/6 1208/2/6 1223/2/6
f 1208/1/6 1209/1/6 1223/1/6
f 1209/1/6 1177/1/6 1224/1/6
f 1223/1/6 1209/1/6 1224/1/6
f 1177/2/6 1161/2/6 1224/2/6
f 1099/1/6 1144/1/6 1225/1/6
f 1144/2/6 1210/2/6 1225/2/6
f 1210/2/6 1211/2/6 1225/2/6
f 1211/1/6 1212/1/6 1226/1/6
f 1225/2/6 1211/2/6 1226/2/6
f 1212/2/6 1213/2/6 1227/2/6
f 1226/1/6 1212/1/6 1227/1/6
f 1213/1/6 1214/1/6 1228/1/6
f 1227/2/6 1213/2/6 1228/2/6
f 1214/1/6 1200/1/6 1229/1/6
f 1228/1/6 1214/1/6 1229/1/6
f 1200/2/6 1149/2/6 1229/2/6
f 1149/1/6 1164/1/6 1230/1/6
f 1229/2/6 1149/2/6 1230/2/6
f 1164/2/6 1201/2/6 1231/2/6
f 1230/1/6 1164/1/6 1231/1/6
f 1201/1/6 1202/1/6 1232/1/6
f 1231/2/6 1201/2/6 1232/2/6
f 1202/2/6 1167/2/6 1233/2/6
f 1232/1/6 1202/1/6 1233/1/6
f 1203/1/6 1215/1/6 1234/1/6
f 1233/2/6 1167/2/6 1234/2/6
f 1215/1/6 1216/1/6 1234/1/6
f 1167/1/6 1203/1/6 1234/1/6
f 1216/2/6 1217/2/6 1235/2/6
f 1234/1/6 1216/1/6 1235/1/6
f 1153/1/6 1154/1/6 1236/1/6
f 1235/2/6 1217/2/6 1236/2/6
f 1217/2/6 1153/2/6 1236/2/6
f 1154/2/6 1218/2/6 1237/2/6
f 1236/1/6 1154/1/6 1237/1/6
f 1218/2/6 1219/2/6 1237/2/6
f 1219/1/6 1220/1/6 1238/1/6
f 1237/2/6 1219/2/6 1238/2/6
f 1173/2/6 1157/2/6 1239/2/6
f 1238/1/6 1220/1/6 1239/1/6
f 1220/1/6 1173/1/6 1239/1/6
f 1157/1/6 1221/1/6 1240/1/6
f 1239/2/6 1157/2/6 1240/2/6
f 1221/2/6 1222/2/6 1241/2/6
f 1240/1/6 1221/1/6 1241/1/6
f 1222/2/6 1159/2/6 1242/2/6
f 1241/2/6 1222/2/6 1242/2/6
f 1159/1/6 1193/1/6 1242/1/6
f 1193/2/6 1223/2/6 1243/2/6
f 1242/1/6 1193/1/6 1243/1/6
f 1223/2/6 1224/2/6 1243/2/6
f 1224/2/6 1161/2/6 1244/2/6
f 1243/2/6 1224/2/6 1244/2/6
f 1161/1/6 1104/1/6 1244/1/6
f 1237/1/6 1238/1/6 1245/1/6
f 1242/1/6 1243/1/6 1245/1/6
f 1243/1/6 1244/1/6 1245/1/6
f 1236/1/6 1237/1/6 1245/1/6
f 1226/1/6 1227/1/6 1245/1/6
f 1229/1/6 1230/1/6 1245/1/6
f 1230/1/6 1231/1/6 1245/1/6
f 1233/1/6 1234/1/6 1245/1/6
f 1225/1/6 1226/1/6 1245/1/6
f 1235/1/6 1236/1/6 1245/1/6
f 1234/1/6 1235/1/6 1245/1/6
f 1231/1/6 1232/1/6 1245/1/6
f 1099/1/6 1225/1/6 1245/1/6
f 1228/1/6 1229/1/6 1245/1/6
f 1239/1/6 1240/1/6 1245/1/6
f 1238/1/6 1239/1/6 1245/1/6
f 1241/1/6 1242/1/6 1245/1/6
f 1240/1/6 1241/1/6 1245/1/6
f 1227/1/6 1228/1/6 1245/1/6
f 1232/1/6 1233/1/6 1245/1/6
f 1245/1/6 1244/1/6 1246/1/6
f 1246/1/6 1244/1/6 1247/1/6
f 1247/1/6 1244/1/6 1248/1/6
f 1244/1/6 1104/1/6 1249/1/6
f 1248/1/6 1244/1/6 1249/1/6
f 1249/1/6 1104/1/6 1250/1/6
f 1246/1/6 1247/1/6 1251/1/6
f 1251/1/6 1247/1/6 1252/1/6
f 1252/1/6 1247/1/6 1253/1/6
f 1248/1/6 1249/1/6 1256/1/6
f 1256/1/6 1249/1/6 1257/1/6
f 1257/1/6 1249/1/6 1258/1/6
f 1253/1/6 1254/1/6 1259/1/6
f 1252/1/6 1253/1/6 1259/1/6
f 1259/1/6 1254/1/6 1260/1/6
f 1256/1/6 1257/1/6 1262/1/6
f 1255/1/6 1256/1/6 1262/1/6
f 1262/1/6 1257/1/6 1263/1/6
f 1263/1/6 1257/1/6 1264/1/6
f 1260/1/6 1254/1/6 1265/1/6
f 1265/1/6 1254/1/6 1266/1/6
f 1262/1/6 1263/1/6 1268/1/6
f 1261/1/6 1262/1/6 1268/1/6
f 1268/1/6 1263/1/6 1269/1/6
f 1269/1/6 1263/1/6 1270/1/6
f 1266/1/6 1254/1/6 1271/1/6
f 1271/1/6 1254/1/6 1272/1/6
f 1272/1/6 1254/1/6 1273/1/6
f 1268/1/6 1269/1/6 1276/1/6
f 1267/1/6 1268/1/6 1276/1/6
f 1276/1/6 1269/1/6 1277/1/6
f 1277/1/6 1269/1/6 1278/1/6
f 1273/1/6 1274/1/6 1279/1/6
f 1272/1/6 1273/1/6 1279/1/6
f 1279/1/6 1274/1/6 1280/1/6
f 1280/1/6 1274/1/6 1281/1/6
f 1276/1/6 1277/1/6 1284/1/6
f 1275/1/6 1276/1/6 1284/1/6
f 1284/1/6 1277/1/6 1285/1/6
f 1285/1/6 1277/1/6 1286/1/6
f 1281/1/6 1282/1/6 1287/1/6
f 1280/1/6 1281/1/6 1287/1/6
f 1287/1/6 1282/1/6 1288/1/6
f 1288/1/6 1282/1/6 1289/1/6
f 1284/1/6 1285/1/6 1291/1/6
f 1283/1/6 1284/1/6 1291/1/6
f 1291/1/6 1285/1/6 1292/1/6
f 1289/1/6 1290/1/6 1293/1/6
f 1288/1/6 1289/1/6 1293/1/6
f 1293/1/6 1290/1/6 1294/1/6
f 1294/1/6 1290/1/6 1295/1/6
f 1283/1/6 1291/1/6 1298/1/6
f 1298/1/6 1291/1/6 1299/1/6
f 1299/1/6 1291/1/6 1300/1/6
f 1295/1/6 1296/1/6 1301/1/6
f 1294/1/6 1295/1/6 1301/1/6
f 1301/1/6 1296/1/6 1302/1/6
f 1302/1/6 1296/1/6 1303/1/6
f 1298/1/6 1299/1/6 1304/1/6
f 1297/1/6 1298/1/6 1304/1/6
f 1304/1/6 1299/1/6 1305/1/6
f 1305/1/6 1299/1/6 1306/1/6
f 1302/1/6 1303/1/6 1307/1/6
f 1304/1/6 1305/1/6 1307/1/6
f 1303/1/6 1304/1/6 1307/1/6
f 1307/1/6 1305/1/6 1308/1/6
f 1308/1/6 1305/1/6 1309/1/6
f 1309/1/6 1305/1/6 1310/1/6
f 1308/1/6 1309/1/6 1311/1/6
f 1311/1/6 1309/1/6 1312/1/6
