# MagicaVoxel @ Ephtracy

# group
o 

# material
mtllib Wood.mtl
usemtl palette

# normals
vn -1 0 0
vn 1 0 0
vn 0 0 1
vn 0 0 -1
vn 0 -1 0
vn 0 1 0

# texcoords
vt 0.0917969 0.5
vt 0.533203 0.5
vt 0.537109 0.5

# verts
v -0.3 0.5 1.5
v -0.3 0.5 1.4
v -0.3 0.5 1.3
v -0.3 0.5 1
v -0.3 0.5 0.7
v -0.3 0.5 -0.1
v -0.3 0.5 -0.3
v -0.3 0.5 -0.5
v -0.3 0.5 -0.7
v -0.3 0.5 -1.4
v -0.3 0.5 -1.5
v -0.3 0.6 1.4
v -0.3 0.6 1.3
v -0.3 0.6 1
v -0.3 0.6 0.8
v -0.3 0.6 0.4
v -0.3 0.6 0.1
v -0.3 0.6 -0.5
v -0.3 0.6 -0.7
v -0.3 0.6 -1.1
v -0.3 0.6 -1.2
v -0.3 0.7 1.2
v -0.3 0.7 1.1
v -0.3 0.7 0.4
v -0.3 0.7 0.2
v -0.3 0.7 -0.1
v -0.3 0.7 -0.3
v -0.3 0.7 -0.5
v -0.3 0.7 -0.6
v -0.3 0.7 -0.8
v -0.3 0.7 -0.9
v -0.3 0.7 -1.2
v -0.3 0.7 -1.4
v -0.3 0.8 1
v -0.3 0.8 0.9
v -0.3 0.8 0.1
v -0.3 0.8 -0.3
v -0.3 0.8 -1.1
v -0.3 0.8 -1.4
v -0.3 0.9 1.4
v -0.3 0.9 1.3
v -0.3 0.9 1
v -0.3 0.9 0.9
v -0.3 0.9 0.8
v -0.3 0.9 0.7
v -0.3 0.9 0.5
v -0.3 0.9 0.2
v -0.3 0.9 0.1
v -0.3 0.9 -0.3
v -0.3 0.9 -0.5
v -0.3 0.9 -0.6
v -0.3 0.9 -0.9
v -0.3 0.9 -1
v -0.3 0.9 -1.2
v -0.3 0.9 -1.3
v -0.3 1 1.5
v -0.3 1 1.4
v -0.3 1 1.3
v -0.3 1 1.2
v -0.3 1 1.1
v -0.3 1 0.5
v -0.3 1 0.1
v -0.3 1 -0.8
v -0.3 1 -1
v -0.3 1 -1.2
v -0.3 1 -1.3
v -0.3 1 -1.4
v -0.3 1 -1.5
v 0.2 0.5 1.5
v 0.2 0.5 1.4
v 0.2 0.5 0.3
v 0.2 0.5 0.2
v 0.2 0.5 -0.2
v 0.2 0.5 -0.3
v 0.2 0.5 -0.4
v 0.2 0.5 -0.5
v 0.2 0.5 -0.8
v 0.2 0.5 -0.9
v 0.2 0.5 -1.3
v 0.2 0.5 -1.4
v 0.2 0.5 -1.5
v 0.2 0.6 1.3
v 0.2 0.6 1.1
v 0.2 0.6 1
v 0.2 0.6 0.7
v 0.2 0.6 0.1
v 0.2 0.6 0
v 0.2 0.6 -0.2
v 0.2 0.6 -0.3
v 0.2 0.6 -0.7
v 0.2 0.6 -0.8
v 0.2 0.6 -0.9
v 0.2 0.6 -1.1
v 0.2 0.6 -1.2
v 0.2 0.6 -1.3
v 0.2 0.6 -1.4
v 0.2 0.7 1.3
v 0.2 0.7 1.2
v 0.2 0.7 1
v 0.2 0.7 0.8
v 0.2 0.7 0.7
v 0.2 0.7 0.4
v 0.2 0.7 0.3
v 0.2 0.7 0.2
v 0.2 0.7 0.1
v 0.2 0.7 0
v 0.2 0.7 -0.3
v 0.2 0.7 -0.4
v 0.2 0.7 -0.5
v 0.2 0.7 -0.6
v 0.2 0.7 -0.7
v 0.2 0.7 -1.2
v 0.2 0.7 -1.4
v 0.2 0.8 0.8
v 0.2 0.8 0.4
v 0.2 0.8 0
v 0.2 0.8 -0.3
v 0.2 0.8 -0.6
v 0.2 0.8 -0.8
v 0.2 0.8 -1.1
v 0.2 0.8 -1.4
v 0.2 0.9 1.5
v 0.2 0.9 1.4
v 0.2 0.9 1.2
v 0.2 0.9 1.1
v 0.2 0.9 0.4
v 0.2 0.9 0.3
v 0.2 0.9 -1
v 0.2 0.9 -1.4
v 0.2 0.9 -1.5
v -0.2 0.5 1.5
v -0.2 0.5 1.4
v -0.2 0.5 1.3
v -0.2 0.5 1
v -0.2 0.5 0.7
v -0.2 0.5 -0.1
v -0.2 0.5 -0.3
v -0.2 0.5 -0.5
v -0.2 0.5 -0.7
v -0.2 0.5 -1.4
v -0.2 0.5 -1.5
v -0.2 0.6 1.4
v -0.2 0.6 1.3
v -0.2 0.6 1
v -0.2 0.6 0.8
v -0.2 0.6 0.4
v -0.2 0.6 0.1
v -0.2 0.6 -0.5
v -0.2 0.6 -0.7
v -0.2 0.6 -1.1
v -0.2 0.6 -1.2
v -0.2 0.7 1.2
v -0.2 0.7 1.1
v -0.2 0.7 0.4
v -0.2 0.7 0.2
v -0.2 0.7 -0.1
v -0.2 0.7 -0.3
v -0.2 0.7 -0.5
v -0.2 0.7 -0.6
v -0.2 0.7 -0.8
v -0.2 0.7 -0.9
v -0.2 0.7 -1.2
v -0.2 0.7 -1.4
v -0.2 0.8 1
v -0.2 0.8 0.9
v -0.2 0.8 0.1
v -0.2 0.8 -0.3
v -0.2 0.8 -1.1
v -0.2 0.8 -1.4
v -0.2 0.9 1.5
v -0.2 0.9 1.4
v -0.2 0.9 1.2
v -0.2 0.9 1.1
v -0.2 0.9 1
v -0.2 0.9 0.9
v -0.2 0.9 0.8
v -0.2 0.9 0.7
v -0.2 0.9 0.6
v -0.2 0.9 0.2
v -0.2 0.9 -0.2
v -0.2 0.9 -0.3
v -0.2 0.9 -0.4
v -0.2 0.9 -0.5
v -0.2 0.9 -0.6
v -0.2 0.9 -0.8
v -0.2 0.9 -0.9
v -0.2 0.9 -1.1
v -0.2 0.9 -1.2
v -0.2 0.9 -1.3
v -0.2 0.9 -1.4
v -0.2 0.9 -1.5
v 0.3 0.5 1.5
v 0.3 0.5 1.4
v 0.3 0.5 0.3
v 0.3 0.5 0.2
v 0.3 0.5 -0.2
v 0.3 0.5 -0.3
v 0.3 0.5 -0.4
v 0.3 0.5 -0.5
v 0.3 0.5 -0.8
v 0.3 0.5 -0.9
v 0.3 0.5 -1.3
v 0.3 0.5 -1.4
v 0.3 0.5 -1.5
v 0.3 0.6 1.3
v 0.3 0.6 1.1
v 0.3 0.6 1
v 0.3 0.6 0.7
v 0.3 0.6 0.1
v 0.3 0.6 0
v 0.3 0.6 -0.2
v 0.3 0.6 -0.3
v 0.3 0.6 -0.7
v 0.3 0.6 -0.8
v 0.3 0.6 -0.9
v 0.3 0.6 -1.1
v 0.3 0.6 -1.2
v 0.3 0.6 -1.3
v 0.3 0.6 -1.4
v 0.3 0.7 1.3
v 0.3 0.7 1.2
v 0.3 0.7 1
v 0.3 0.7 0.8
v 0.3 0.7 0.7
v 0.3 0.7 0.4
v 0.3 0.7 0.3
v 0.3 0.7 0.2
v 0.3 0.7 0.1
v 0.3 0.7 0
v 0.3 0.7 -0.3
v 0.3 0.7 -0.4
v 0.3 0.7 -0.5
v 0.3 0.7 -0.6
v 0.3 0.7 -0.7
v 0.3 0.7 -1.2
v 0.3 0.7 -1.4
v 0.3 0.8 0.8
v 0.3 0.8 0.4
v 0.3 0.8 0
v 0.3 0.8 -0.3
v 0.3 0.8 -0.6
v 0.3 0.8 -0.8
v 0.3 0.8 -1.1
v 0.3 0.8 -1.4
v 0.3 0.9 1.4
v 0.3 0.9 1.2
v 0.3 0.9 0.9
v 0.3 0.9 0.6
v 0.3 0.9 0.2
v 0.3 0.9 -0.4
v 0.3 0.9 -0.7
v 0.3 0.9 -1.1
v 0.3 1 1.5
v 0.3 1 1.4
v 0.3 1 1.1
v 0.3 1 0.9
v 0.3 1 0.6
v 0.3 1 0.2
v 0.3 1 -0.4
v 0.3 1 -0.7
v 0.3 1 -1.1
v 0.3 1 -1.4
v 0.3 1 -1.5
v -0.3 0.5 1.5
v -0.3 1 1.5
v -0.2 0.5 1.5
v -0.2 0.9 1.5
v 0.2 0.5 1.5
v 0.2 0.9 1.5
v 0.3 0.5 1.5
v 0.3 1 1.5
v -0.3 0.5 -1.5
v -0.3 1 -1.5
v -0.2 0.5 -1.5
v -0.2 0.9 -1.5
v 0.2 0.5 -1.5
v 0.2 0.9 -1.5
v 0.3 0.5 -1.5
v 0.3 1 -1.5
v -0.3 0.5 1.5
v -0.2 0.5 1.5
v 0.2 0.5 1.5
v 0.3 0.5 1.5
v -0.3 0.5 1.4
v -0.2 0.5 1.4
v 0.2 0.5 1.4
v 0.3 0.5 1.4
v -0.3 0.5 1.3
v -0.2 0.5 1.3
v -0.3 0.5 1
v -0.2 0.5 1
v -0.3 0.5 0.7
v -0.2 0.5 0.7
v 0.2 0.5 0.3
v 0.3 0.5 0.3
v 0.2 0.5 0.2
v 0.3 0.5 0.2
v -0.3 0.5 -0.1
v -0.2 0.5 -0.1
v 0.2 0.5 -0.2
v 0.3 0.5 -0.2
v -0.3 0.5 -0.3
v -0.2 0.5 -0.3
v 0.2 0.5 -0.3
v 0.3 0.5 -0.3
v 0.2 0.5 -0.4
v 0.3 0.5 -0.4
v -0.3 0.5 -0.5
v -0.2 0.5 -0.5
v 0.2 0.5 -0.5
v 0.3 0.5 -0.5
v -0.3 0.5 -0.7
v -0.2 0.5 -0.7
v 0.2 0.5 -0.8
v 0.3 0.5 -0.8
v 0.2 0.5 -0.9
v 0.3 0.5 -0.9
v 0.2 0.5 -1.3
v 0.3 0.5 -1.3
v -0.3 0.5 -1.4
v -0.2 0.5 -1.4
v 0.2 0.5 -1.4
v 0.3 0.5 -1.4
v -0.3 0.5 -1.5
v -0.2 0.5 -1.5
v 0.2 0.5 -1.5
v 0.3 0.5 -1.5
v -0.2 0.9 1.5
v 0.2 0.9 1.5
v -0.2 0.9 1.4
v 0.2 0.9 1.4
v -0.1 0.9 1.3
v 0.1 0.9 1.3
v -0.2 0.9 1.2
v -0.1 0.9 1.2
v 0.1 0.9 1.2
v 0.2 0.9 1.2
v -0.2 0.9 1.1
v 0.2 0.9 1.1
v -0.2 0.9 1
v -0.1 0.9 1
v 0.1 0.9 1
v -0.2 0.9 0.9
v -0.1 0.9 0.9
v 0 0.9 0.9
v -0.2 0.9 0.8
v -0.2 0.9 0.7
v 0 0.9 0.7
v -0.2 0.9 0.6
v 0.1 0.9 0.6
v -0.1 0.9 0.5
v 0 0.9 0.5
v -0.1 0.9 0.4
v 0 0.9 0.4
v 0.2 0.9 0.4
v 0.1 0.9 0.3
v 0.2 0.9 0.3
v -0.2 0.9 0.2
v 0 0.9 0
v 0.1 0.9 0
v -0.2 0.9 -0.2
v 0.1 0.9 -0.2
v -0.2 0.9 -0.3
v 0.1 0.9 -0.3
v -0.2 0.9 -0.4
v -0.1 0.9 -0.4
v -0.2 0.9 -0.5
v -0.2 0.9 -0.6
v -0.1 0.9 -0.6
v 0 0.9 -0.6
v -0.2 0.9 -0.8
v -0.2 0.9 -0.9
v -0.1 0.9 -0.9
v 0 0.9 -0.9
v -0.1 0.9 -1
v 0 0.9 -1
v 0.1 0.9 -1
v 0.2 0.9 -1
v -0.2 0.9 -1.1
v -0.1 0.9 -1.1
v 0 0.9 -1.1
v -0.2 0.9 -1.2
v -0.1 0.9 -1.2
v -0.2 0.9 -1.3
v -0.1 0.9 -1.3
v -0.2 0.9 -1.4
v -0.1 0.9 -1.4
v 0.1 0.9 -1.4
v 0.2 0.9 -1.4
v -0.2 0.9 -1.5
v 0.2 0.9 -1.5
v -0.3 1 1.5
v 0.3 1 1.5
v -0.3 1 1.4
v -0.2 1 1.4
v 0.2 1 1.4
v 0.3 1 1.4
v -0.3 1 1.3
v -0.2 1 1.3
v -0.1 1 1.3
v 0.1 1 1.3
v -0.3 1 1.2
v -0.2 1 1.2
v -0.1 1 1.2
v 0.1 1 1.2
v -0.3 1 1.1
v -0.2 1 1.1
v 0.2 1 1.1
v 0.3 1 1.1
v -0.1 1 1
v 0.1 1 1
v -0.1 1 0.9
v 0 1 0.9
v 0.2 1 0.9
v 0.3 1 0.9
v -0.2 1 0.7
v 0 1 0.7
v -0.2 1 0.6
v 0.1 1 0.6
v 0.2 1 0.6
v 0.3 1 0.6
v -0.3 1 0.5
v -0.2 1 0.5
v -0.1 1 0.5
v 0 1 0.5
v -0.1 1 0.4
v 0 1 0.4
v 0.2 1 0.4
v 0.1 1 0.3
v 0.2 1 0.3
v 0.2 1 0.2
v 0.3 1 0.2
v -0.3 1 0.1
v -0.2 1 0.1
v 0 1 0
v 0.1 1 0
v -0.2 1 -0.2
v 0.1 1 -0.2
v -0.2 1 -0.3
v 0.1 1 -0.3
v -0.2 1 -0.4
v -0.1 1 -0.4
v 0.2 1 -0.4
v 0.3 1 -0.4
v -0.2 1 -0.6
v -0.1 1 -0.6
v 0 1 -0.6
v 0.2 1 -0.7
v 0.3 1 -0.7
v -0.3 1 -0.8
v -0.2 1 -0.8
v -0.1 1 -0.9
v 0 1 -0.9
v -0.3 1 -1
v -0.2 1 -1
v -0.1 1 -1
v 0 1 -1
v 0.1 1 -1
v 0.2 1 -1
v -0.2 1 -1.1
v -0.1 1 -1.1
v 0 1 -1.1
v 0.2 1 -1.1
v 0.3 1 -1.1
v -0.3 1 -1.2
v -0.2 1 -1.2
v -0.1 1 -1.2
v -0.3 1 -1.3
v -0.2 1 -1.3
v -0.1 1 -1.3
v -0.3 1 -1.4
v -0.2 1 -1.4
v -0.1 1 -1.4
v 0.1 1 -1.4
v 0.2 1 -1.4
v 0.3 1 -1.4
v -0.3 1 -1.5
v 0.3 1 -1.5

# faces
f 12/2/1 2/2/1 1/2/1
f 12/1/1 3/1/1 2/1/1
f 13/3/1 4/3/1 3/3/1
f 13/1/1 3/1/1 12/1/1
f 14/1/1 5/1/1 4/1/1
f 14/3/1 4/3/1 13/3/1
f 15/1/1 5/1/1 14/1/1
f 16/3/1 6/3/1 5/3/1
f 17/3/1 6/3/1 16/3/1
f 18/3/1 8/3/1 7/3/1
f 18/1/1 9/1/1 8/1/1
f 19/3/1 10/3/1 9/3/1
f 19/1/1 9/1/1 18/1/1
f 20/3/1 10/3/1 19/3/1
f 21/3/1 10/3/1 20/3/1
f 22/3/1 13/3/1 12/3/1
f 22/3/1 14/3/1 13/3/1
f 22/3/1 15/3/1 14/3/1
f 23/3/1 15/3/1 22/3/1
f 24/1/1 17/1/1 16/1/1
f 24/3/1 16/3/1 5/3/1
f 25/1/1 17/1/1 24/1/1
f 26/1/1 7/1/1 6/1/1
f 26/3/1 6/3/1 17/3/1
f 27/3/1 18/3/1 7/3/1
f 27/1/1 7/1/1 26/1/1
f 27/3/1 20/3/1 19/3/1
f 27/3/1 19/3/1 18/3/1
f 28/3/1 20/3/1 27/3/1
f 29/3/1 20/3/1 28/3/1
f 30/3/1 20/3/1 29/3/1
f 31/3/1 20/3/1 30/3/1
f 32/3/1 10/3/1 21/3/1
f 32/1/1 21/1/1 20/1/1
f 33/2/1 11/2/1 10/2/1
f 33/3/1 10/3/1 32/3/1
f 34/3/1 15/3/1 23/3/1
f 35/3/1 15/3/1 34/3/1
f 36/3/1 26/3/1 17/3/1
f 36/1/1 17/1/1 25/1/1
f 36/3/1 27/3/1 26/3/1
f 36/3/1 28/3/1 27/3/1
f 37/3/1 28/3/1 36/3/1
f 38/1/1 32/1/1 20/1/1
f 38/3/1 20/3/1 31/3/1
f 38/1/1 33/1/1 32/1/1
f 39/2/1 11/2/1 33/2/1
f 39/1/1 33/1/1 38/1/1
f 40/2/1 12/2/1 1/2/1
f 40/3/1 22/3/1 12/3/1
f 41/3/1 22/3/1 40/3/1
f 42/1/1 35/1/1 34/1/1
f 42/3/1 34/3/1 23/3/1
f 43/3/1 15/3/1 35/3/1
f 43/1/1 35/1/1 42/1/1
f 44/1/1 5/1/1 15/1/1
f 44/3/1 15/3/1 43/3/1
f 45/3/1 25/3/1 24/3/1
f 45/1/1 5/1/1 44/1/1
f 45/3/1 24/3/1 5/3/1
f 46/3/1 25/3/1 45/3/1
f 47/1/1 37/1/1 36/1/1
f 47/3/1 25/3/1 46/3/1
f 47/1/1 36/1/1 25/1/1
f 48/1/1 37/1/1 47/1/1
f 49/3/1 28/3/1 37/3/1
f 49/1/1 37/1/1 48/1/1
f 50/1/1 29/1/1 28/1/1
f 50/3/1 28/3/1 49/3/1
f 51/3/1 30/3/1 29/3/1
f 51/1/1 29/1/1 50/1/1
f 52/3/1 38/3/1 31/3/1
f 52/1/1 31/1/1 30/1/1
f 52/3/1 39/3/1 38/3/1
f 53/3/1 39/3/1 52/3/1
f 54/3/1 39/3/1 53/3/1
f 55/3/1 39/3/1 54/3/1
f 56/2/1 40/2/1 1/2/1
f 57/1/1 41/1/1 40/1/1
f 57/2/1 40/2/1 56/2/1
f 58/3/1 22/3/1 41/3/1
f 58/1/1 41/1/1 57/1/1
f 59/1/1 23/1/1 22/1/1
f 59/3/1 22/3/1 58/3/1
f 60/3/1 42/3/1 23/3/1
f 60/1/1 23/1/1 59/1/1
f 60/3/1 46/3/1 45/3/1
f 60/3/1 43/3/1 42/3/1
f 60/3/1 44/3/1 43/3/1
f 60/3/1 45/3/1 44/3/1
f 61/1/1 48/1/1 47/1/1
f 61/3/1 46/3/1 60/3/1
f 61/1/1 47/1/1 46/1/1
f 62/3/1 51/3/1 50/3/1
f 62/1/1 48/1/1 61/1/1
f 62/3/1 50/3/1 49/3/1
f 62/3/1 49/3/1 48/3/1
f 63/1/1 53/1/1 52/1/1
f 63/3/1 51/3/1 62/3/1
f 63/3/1 30/3/1 51/3/1
f 63/1/1 52/1/1 30/1/1
f 64/3/1 54/3/1 53/3/1
f 64/1/1 53/1/1 63/1/1
f 65/1/1 55/1/1 54/1/1
f 65/3/1 54/3/1 64/3/1
f 66/3/1 39/3/1 55/3/1
f 66/1/1 55/1/1 65/1/1
f 67/2/1 11/2/1 39/2/1
f 67/3/1 39/3/1 66/3/1
f 68/2/1 11/2/1 67/2/1
f 82/3/1 71/3/1 70/3/1
f 83/3/1 71/3/1 82/3/1
f 84/3/1 71/3/1 83/3/1
f 85/3/1 71/3/1 84/3/1
f 86/3/1 73/3/1 72/3/1
f 87/3/1 73/3/1 86/3/1
f 88/1/1 74/1/1 73/1/1
f 88/3/1 73/3/1 87/3/1
f 89/3/1 75/3/1 74/3/1
f 89/1/1 74/1/1 88/1/1
f 90/3/1 77/3/1 76/3/1
f 91/1/1 78/1/1 77/1/1
f 91/3/1 77/3/1 90/3/1
f 92/3/1 79/3/1 78/3/1
f 92/1/1 78/1/1 91/1/1
f 93/3/1 79/3/1 92/3/1
f 94/3/1 79/3/1 93/3/1
f 95/1/1 80/1/1 79/1/1
f 95/3/1 79/3/1 94/3/1
f 96/2/1 81/2/1 80/2/1
f 96/1/1 80/1/1 95/1/1
f 97/3/1 82/3/1 70/3/1
f 97/1/1 83/1/1 82/1/1
f 98/1/1 83/1/1 97/1/1
f 99/3/1 84/3/1 83/3/1
f 99/1/1 85/1/1 84/1/1
f 100/1/1 85/1/1 99/1/1
f 101/3/1 71/3/1 85/3/1
f 101/1/1 85/1/1 100/1/1
f 102/3/1 71/3/1 101/3/1
f 103/1/1 72/1/1 71/1/1
f 103/3/1 71/3/1 102/3/1
f 104/3/1 86/3/1 72/3/1
f 104/1/1 72/1/1 103/1/1
f 105/1/1 87/1/1 86/1/1
f 105/3/1 86/3/1 104/3/1
f 106/3/1 88/3/1 87/3/1
f 106/1/1 87/1/1 105/1/1
f 106/3/1 89/3/1 88/3/1
f 107/3/1 75/3/1 89/3/1
f 107/3/1 89/3/1 106/3/1
f 108/1/1 76/1/1 75/1/1
f 108/3/1 75/3/1 107/3/1
f 109/3/1 90/3/1 76/3/1
f 109/1/1 76/1/1 108/1/1
f 110/3/1 90/3/1 109/3/1
f 111/1/1 91/1/1 90/1/1
f 111/3/1 90/3/1 110/3/1
f 112/3/1 95/3/1 94/3/1
f 112/1/1 94/1/1 93/1/1
f 112/3/1 96/3/1 95/3/1
f 113/2/1 81/2/1 96/2/1
f 113/3/1 96/3/1 112/3/1
f 114/1/1 102/1/1 101/1/1
f 114/3/1 100/3/1 99/3/1
f 114/1/1 101/1/1 100/1/1
f 115/3/1 104/3/1 103/3/1
f 115/1/1 102/1/1 114/1/1
f 115/3/1 105/3/1 104/3/1
f 115/3/1 106/3/1 105/3/1
f 115/3/1 103/3/1 102/3/1
f 116/1/1 107/1/1 106/1/1
f 116/3/1 106/3/1 115/3/1
f 117/3/1 108/3/1 107/3/1
f 117/1/1 107/1/1 116/1/1
f 117/3/1 110/3/1 109/3/1
f 117/3/1 109/3/1 108/3/1
f 118/1/1 111/1/1 110/1/1
f 118/3/1 110/3/1 117/3/1
f 119/1/1 91/1/1 111/1/1
f 119/1/1 111/1/1 118/1/1
f 119/3/1 93/3/1 92/3/1
f 119/3/1 92/3/1 91/3/1
f 120/1/1 113/1/1 112/1/1
f 120/3/1 93/3/1 119/3/1
f 120/1/1 112/1/1 93/1/1
f 121/2/1 81/2/1 113/2/1
f 121/1/1 113/1/1 120/1/1
f 122/2/1 70/2/1 69/2/1
f 123/3/1 97/3/1 70/3/1
f 123/2/1 70/2/1 122/2/1
f 123/3/1 98/3/1 97/3/1
f 124/1/1 83/1/1 98/1/1
f 124/3/1 98/3/1 123/3/1
f 125/3/1 118/3/1 117/3/1
f 125/1/1 83/1/1 124/1/1
f 125/3/1 120/3/1 119/3/1
f 125/3/1 119/3/1 118/3/1
f 125/3/1 117/3/1 116/3/1
f 125/3/1 99/3/1 83/3/1
f 125/3/1 116/3/1 115/3/1
f 125/3/1 121/3/1 120/3/1
f 125/3/1 115/3/1 114/3/1
f 125/3/1 114/3/1 99/3/1
f 126/3/1 121/3/1 125/3/1
f 127/3/1 121/3/1 126/3/1
f 128/3/1 121/3/1 127/3/1
f 129/2/1 81/2/1 121/2/1
f 129/3/1 121/3/1 128/3/1
f 130/2/1 81/2/1 129/2/1
f 131/2/2 132/2/2 142/2/2
f 132/1/2 133/1/2 142/1/2
f 133/3/2 134/3/2 143/3/2
f 142/1/2 133/1/2 143/1/2
f 134/1/2 135/1/2 144/1/2
f 143/3/2 134/3/2 144/3/2
f 144/1/2 135/1/2 145/1/2
f 135/3/2 136/3/2 146/3/2
f 146/3/2 136/3/2 147/3/2
f 137/3/2 138/3/2 148/3/2
f 138/1/2 139/1/2 148/1/2
f 139/3/2 140/3/2 149/3/2
f 148/1/2 139/1/2 149/1/2
f 149/3/2 140/3/2 150/3/2
f 150/3/2 140/3/2 151/3/2
f 142/3/2 143/3/2 152/3/2
f 143/3/2 144/3/2 152/3/2
f 144/3/2 145/3/2 152/3/2
f 152/3/2 145/3/2 153/3/2
f 146/1/2 147/1/2 154/1/2
f 135/3/2 146/3/2 154/3/2
f 154/1/2 147/1/2 155/1/2
f 136/1/2 137/1/2 156/1/2
f 147/3/2 136/3/2 156/3/2
f 137/3/2 148/3/2 157/3/2
f 156/1/2 137/1/2 157/1/2
f 149/3/2 150/3/2 157/3/2
f 148/3/2 149/3/2 157/3/2
f 157/3/2 150/3/2 158/3/2
f 158/3/2 150/3/2 159/3/2
f 159/3/2 150/3/2 160/3/2
f 160/3/2 150/3/2 161/3/2
f 151/3/2 140/3/2 162/3/2
f 150/1/2 151/1/2 162/1/2
f 140/2/2 141/2/2 163/2/2
f 162/3/2 140/3/2 163/3/2
f 153/3/2 145/3/2 164/3/2
f 164/3/2 145/3/2 165/3/2
f 147/3/2 156/3/2 166/3/2
f 155/1/2 147/1/2 166/1/2
f 156/3/2 157/3/2 166/3/2
f 157/3/2 158/3/2 166/3/2
f 166/3/2 158/3/2 167/3/2
f 150/1/2 162/1/2 168/1/2
f 161/3/2 150/3/2 168/3/2
f 162/1/2 163/1/2 168/1/2
f 163/2/2 141/2/2 169/2/2
f 168/1/2 163/1/2 169/1/2
f 131/2/2 142/2/2 170/2/2
f 142/3/2 152/3/2 171/3/2
f 170/2/2 142/2/2 171/2/2
f 152/1/2 153/1/2 172/1/2
f 171/3/2 152/3/2 172/3/2
f 153/3/2 164/3/2 173/3/2
f 172/1/2 153/1/2 173/1/2
f 164/1/2 165/1/2 174/1/2
f 173/3/2 164/3/2 174/3/2
f 165/3/2 145/3/2 175/3/2
f 174/1/2 165/1/2 175/1/2
f 145/1/2 135/1/2 176/1/2
f 175/3/2 145/3/2 176/3/2
f 154/3/2 155/3/2 177/3/2
f 176/1/2 135/1/2 177/1/2
f 135/3/2 154/3/2 177/3/2
f 177/3/2 155/3/2 178/3/2
f 166/1/2 167/1/2 179/1/2
f 178/3/2 155/3/2 179/3/2
f 155/1/2 166/1/2 179/1/2
f 179/1/2 167/1/2 180/1/2
f 167/3/2 158/3/2 181/3/2
f 180/1/2 167/1/2 181/1/2
f 181/3/2 158/3/2 182/3/2
f 158/1/2 159/1/2 183/1/2
f 182/3/2 158/3/2 183/3/2
f 159/3/2 160/3/2 184/3/2
f 183/1/2 159/1/2 184/1/2
f 160/1/2 161/1/2 185/1/2
f 184/3/2 160/3/2 185/3/2
f 161/3/2 168/3/2 186/3/2
f 185/1/2 161/1/2 186/1/2
f 168/3/2 169/3/2 186/3/2
f 186/3/2 169/3/2 187/3/2
f 187/3/2 169/3/2 188/3/2
f 188/3/2 169/3/2 189/3/2
f 169/2/2 141/2/2 190/2/2
f 189/3/2 169/3/2 190/3/2
f 190/2/2 141/2/2 191/2/2
f 193/3/2 194/3/2 205/3/2
f 205/3/2 194/3/2 206/3/2
f 206/3/2 194/3/2 207/3/2
f 207/3/2 194/3/2 208/3/2
f 195/3/2 196/3/2 209/3/2
f 209/3/2 196/3/2 210/3/2
f 196/1/2 197/1/2 211/1/2
f 210/3/2 196/3/2 211/3/2
f 197/3/2 198/3/2 212/3/2
f 211/1/2 197/1/2 212/1/2
f 199/3/2 200/3/2 213/3/2
f 200/1/2 201/1/2 214/1/2
f 213/3/2 200/3/2 214/3/2
f 201/3/2 202/3/2 215/3/2
f 214/1/2 201/1/2 215/1/2
f 215/3/2 202/3/2 216/3/2
f 216/3/2 202/3/2 217/3/2
f 202/1/2 203/1/2 218/1/2
f 217/3/2 202/3/2 218/3/2
f 203/2/2 204/2/2 219/2/2
f 218/1/2 203/1/2 219/1/2
f 193/3/2 205/3/2 220/3/2
f 205/1/2 206/1/2 220/1/2
f 220/1/2 206/1/2 221/1/2
f 206/3/2 207/3/2 222/3/2
f 207/1/2 208/1/2 222/1/2
f 222/1/2 208/1/2 223/1/2
f 208/3/2 194/3/2 224/3/2
f 223/1/2 208/1/2 224/1/2
f 224/3/2 194/3/2 225/3/2
f 194/1/2 195/1/2 226/1/2
f 225/3/2 194/3/2 226/3/2
f 195/3/2 209/3/2 227/3/2
f 226/1/2 195/1/2 227/1/2
f 209/1/2 210/1/2 228/1/2
f 227/3/2 209/3/2 228/3/2
f 210/3/2 211/3/2 229/3/2
f 228/1/2 210/1/2 229/1/2
f 211/3/2 212/3/2 229/3/2
f 212/3/2 198/3/2 230/3/2
f 229/3/2 212/3/2 230/3/2
f 198/1/2 199/1/2 231/1/2
f 230/3/2 198/3/2 231/3/2
f 199/3/2 213/3/2 232/3/2
f 231/1/2 199/1/2 232/1/2
f 232/3/2 213/3/2 233/3/2
f 213/1/2 214/1/2 234/1/2
f 233/3/2 213/3/2 234/3/2
f 217/3/2 218/3/2 235/3/2
f 216/1/2 217/1/2 235/1/2
f 218/3/2 219/3/2 235/3/2
f 219/2/2 204/2/2 236/2/2
f 235/3/2 219/3/2 236/3/2
f 224/1/2 225/1/2 237/1/2
f 222/3/2 223/3/2 237/3/2
f 223/1/2 224/1/2 237/1/2
f 226/3/2 227/3/2 238/3/2
f 237/1/2 225/1/2 238/1/2
f 227/3/2 228/3/2 238/3/2
f 228/3/2 229/3/2 238/3/2
f 225/3/2 226/3/2 238/3/2
f 229/1/2 230/1/2 239/1/2
f 238/3/2 229/3/2 239/3/2
f 230/3/2 231/3/2 240/3/2
f 239/1/2 230/1/2 240/1/2
f 232/3/2 233/3/2 240/3/2
f 231/3/2 232/3/2 240/3/2
f 233/1/2 234/1/2 241/1/2
f 240/3/2 233/3/2 241/3/2
f 234/1/2 214/1/2 242/1/2
f 241/1/2 234/1/2 242/1/2
f 215/3/2 216/3/2 242/3/2
f 214/3/2 215/3/2 242/3/2
f 235/1/2 236/1/2 243/1/2
f 242/3/2 216/3/2 243/3/2
f 216/1/2 235/1/2 243/1/2
f 236/2/2 204/2/2 244/2/2
f 243/1/2 236/1/2 244/1/2
f 192/2/2 193/2/2 245/2/2
f 193/3/2 220/3/2 245/3/2
f 220/3/2 221/3/2 245/3/2
f 221/1/2 206/1/2 246/1/2
f 245/3/2 221/3/2 246/3/2
f 240/3/2 241/3/2 247/3/2
f 242/3/2 243/3/2 247/3/2
f 241/3/2 242/3/2 247/3/2
f 239/3/2 240/3/2 247/3/2
f 222/3/2 237/3/2 247/3/2
f 238/3/2 239/3/2 247/3/2
f 243/3/2 244/3/2 247/3/2
f 237/3/2 238/3/2 247/3/2
f 247/3/2 244/3/2 248/3/2
f 248/3/2 244/3/2 249/3/2
f 249/3/2 244/3/2 250/3/2
f 250/3/2 244/3/2 251/3/2
f 251/3/2 244/3/2 252/3/2
f 192/2/2 245/2/2 253/2/2
f 245/1/2 246/1/2 254/1/2
f 253/2/2 245/2/2 254/2/2
f 246/1/2 206/1/2 255/1/2
f 254/1/2 246/1/2 255/1/2
f 206/3/2 222/3/2 255/3/2
f 222/3/2 247/3/2 255/3/2
f 247/1/2 248/1/2 256/1/2
f 255/3/2 247/3/2 256/3/2
f 248/3/2 249/3/2 257/3/2
f 256/1/2 248/1/2 257/1/2
f 249/1/2 250/1/2 258/1/2
f 257/3/2 249/3/2 258/3/2
f 250/3/2 251/3/2 259/3/2
f 258/1/2 250/1/2 259/1/2
f 251/1/2 252/1/2 260/1/2
f 259/3/2 251/3/2 260/3/2
f 252/3/2 244/3/2 261/3/2
f 260/1/2 252/1/2 261/1/2
f 244/2/2 204/2/2 262/2/2
f 261/3/2 244/3/2 262/3/2
f 262/2/2 204/2/2 263/2/2
f 266/2/3 265/2/3 264/2/3
f 267/2/3 265/2/3 266/2/3
f 269/2/3 265/2/3 267/2/3
f 270/2/3 269/2/3 268/2/3
f 271/2/3 265/2/3 269/2/3
f 271/2/3 269/2/3 270/2/3
f 272/2/4 273/2/4 274/2/4
f 274/2/4 273/2/4 275/2/4
f 275/2/4 273/2/4 277/2/4
f 276/2/4 277/2/4 278/2/4
f 277/2/4 273/2/4 279/2/4
f 278/2/4 277/2/4 279/2/4
f 284/2/5 281/2/5 280/2/5
f 285/2/5 281/2/5 284/2/5
f 286/2/5 283/2/5 282/2/5
f 287/2/5 283/2/5 286/2/5
f 288/1/5 285/1/5 284/1/5
f 289/1/5 285/1/5 288/1/5
f 290/3/5 289/3/5 288/3/5
f 291/3/5 289/3/5 290/3/5
f 292/1/5 291/1/5 290/1/5
f 293/1/5 291/1/5 292/1/5
f 294/3/5 287/3/5 286/3/5
f 295/3/5 287/3/5 294/3/5
f 296/1/5 295/1/5 294/1/5
f 297/1/5 295/1/5 296/1/5
f 298/3/5 293/3/5 292/3/5
f 299/3/5 293/3/5 298/3/5
f 300/3/5 297/3/5 296/3/5
f 301/3/5 297/3/5 300/3/5
f 302/1/5 299/1/5 298/1/5
f 303/1/5 299/1/5 302/1/5
f 304/1/5 301/1/5 300/1/5
f 305/1/5 301/1/5 304/1/5
f 306/3/5 305/3/5 304/3/5
f 307/3/5 305/3/5 306/3/5
f 308/3/5 303/3/5 302/3/5
f 309/3/5 303/3/5 308/3/5
f 310/1/5 307/1/5 306/1/5
f 311/1/5 307/1/5 310/1/5
f 312/1/5 309/1/5 308/1/5
f 313/1/5 309/1/5 312/1/5
f 314/3/5 311/3/5 310/3/5
f 315/3/5 311/3/5 314/3/5
f 316/1/5 315/1/5 314/1/5
f 317/1/5 315/1/5 316/1/5
f 318/3/5 317/3/5 316/3/5
f 319/3/5 317/3/5 318/3/5
f 320/3/5 313/3/5 312/3/5
f 321/3/5 313/3/5 320/3/5
f 322/1/5 319/1/5 318/1/5
f 323/1/5 319/1/5 322/1/5
f 324/2/5 321/2/5 320/2/5
f 325/2/5 321/2/5 324/2/5
f 326/2/5 323/2/5 322/2/5
f 327/2/5 323/2/5 326/2/5
f 330/2/5 329/2/5 328/2/5
f 331/2/5 329/2/5 330/2/5
f 332/3/5 331/3/5 330/3/5
f 333/3/5 331/3/5 332/3/5
f 334/3/5 332/3/5 330/3/5
f 335/1/5 333/1/5 332/1/5
f 335/3/5 332/3/5 334/3/5
f 336/3/5 331/3/5 333/3/5
f 336/1/5 333/1/5 335/1/5
f 337/3/5 331/3/5 336/3/5
f 338/3/5 335/3/5 334/3/5
f 338/3/5 336/3/5 335/3/5
f 338/3/5 337/3/5 336/3/5
f 339/3/5 337/3/5 338/3/5
f 340/3/5 339/3/5 338/3/5
f 341/3/5 339/3/5 340/3/5
f 342/3/5 339/3/5 341/3/5
f 343/3/5 341/3/5 340/3/5
f 344/1/5 342/1/5 341/1/5
f 344/3/5 341/3/5 343/3/5
f 345/1/5 342/1/5 344/1/5
f 346/3/5 344/3/5 343/3/5
f 346/3/5 345/3/5 344/3/5
f 347/3/5 345/3/5 346/3/5
f 348/1/5 342/1/5 345/1/5
f 348/3/5 345/3/5 347/3/5
f 349/1/5 348/1/5 347/1/5
f 350/3/5 339/3/5 342/3/5
f 350/1/5 348/1/5 349/1/5
f 350/1/5 342/1/5 348/1/5
f 351/3/5 350/3/5 349/3/5
f 352/3/5 350/3/5 351/3/5
f 353/3/5 351/3/5 349/3/5
f 353/1/5 352/1/5 351/1/5
f 354/3/5 350/3/5 352/3/5
f 354/1/5 352/1/5 353/1/5
f 355/3/5 339/3/5 350/3/5
f 355/3/5 350/3/5 354/3/5
f 356/1/5 355/1/5 354/1/5
f 357/1/5 355/1/5 356/1/5
f 358/3/5 354/3/5 353/3/5
f 358/3/5 353/3/5 349/3/5
f 359/1/5 356/1/5 354/1/5
f 359/3/5 354/3/5 358/3/5
f 360/3/5 357/3/5 356/3/5
f 360/1/5 356/1/5 359/1/5
f 361/3/5 359/3/5 358/3/5
f 361/3/5 360/3/5 359/3/5
f 362/3/5 357/3/5 360/3/5
f 362/3/5 360/3/5 361/3/5
f 363/1/5 362/1/5 361/1/5
f 364/3/5 357/3/5 362/3/5
f 364/1/5 362/1/5 363/1/5
f 365/3/5 364/3/5 363/3/5
f 366/3/5 364/3/5 365/3/5
f 367/1/5 366/1/5 365/1/5
f 368/1/5 366/1/5 367/1/5
f 369/3/5 364/3/5 366/3/5
f 369/1/5 366/1/5 368/1/5
f 370/3/5 364/3/5 369/3/5
f 371/3/5 369/3/5 368/3/5
f 372/3/5 369/3/5 371/3/5
f 373/1/5 370/1/5 369/1/5
f 373/3/5 369/3/5 372/3/5
f 374/3/5 364/3/5 370/3/5
f 374/1/5 370/1/5 373/1/5
f 375/3/5 373/3/5 372/3/5
f 375/3/5 374/3/5 373/3/5
f 376/3/5 364/3/5 374/3/5
f 376/3/5 374/3/5 375/3/5
f 377/3/5 357/3/5 364/3/5
f 377/3/5 364/3/5 376/3/5
f 378/3/5 357/3/5 377/3/5
f 379/3/5 375/3/5 372/3/5
f 380/1/5 376/1/5 375/1/5
f 380/3/5 375/3/5 379/3/5
f 381/3/5 377/3/5 376/3/5
f 381/1/5 376/1/5 380/1/5
f 382/1/5 380/1/5 379/1/5
f 383/3/5 381/3/5 380/3/5
f 383/1/5 380/1/5 382/1/5
f 384/3/5 383/3/5 382/3/5
f 385/3/5 381/3/5 383/3/5
f 385/3/5 383/3/5 384/3/5
f 386/1/5 385/1/5 384/1/5
f 387/3/5 381/3/5 385/3/5
f 387/1/5 385/1/5 386/1/5
f 388/3/5 377/3/5 381/3/5
f 388/3/5 381/3/5 387/3/5
f 388/1/5 378/1/5 377/1/5
f 389/1/5 378/1/5 388/1/5
f 390/2/5 387/2/5 386/2/5
f 390/2/5 388/2/5 387/2/5
f 390/2/5 389/2/5 388/2/5
f 391/2/5 389/2/5 390/2/5
f 392/2/6 393/2/6 394/2/6
f 394/2/6 393/2/6 395/2/6
f 395/2/6 393/2/6 396/2/6
f 396/2/6 393/2/6 397/2/6
f 394/1/6 395/1/6 398/1/6
f 395/3/6 396/3/6 399/3/6
f 398/1/6 395/1/6 399/1/6
f 399/3/6 396/3/6 400/3/6
f 400/3/6 396/3/6 401/3/6
f 398/3/6 399/3/6 402/3/6
f 399/3/6 400/3/6 402/3/6
f 402/3/6 400/3/6 403/3/6
f 400/1/6 401/1/6 404/1/6
f 403/3/6 400/3/6 404/3/6
f 401/3/6 396/3/6 405/3/6
f 404/1/6 401/1/6 405/1/6
f 402/1/6 403/1/6 406/1/6
f 403/3/6 404/3/6 407/3/6
f 406/1/6 403/1/6 407/1/6
f 404/3/6 405/3/6 407/3/6
f 396/1/6 397/1/6 408/1/6
f 407/3/6 405/3/6 408/3/6
f 405/3/6 396/3/6 408/3/6
f 408/1/6 397/1/6 409/1/6
f 406/3/6 407/3/6 410/3/6
f 407/3/6 408/3/6 410/3/6
f 408/3/6 409/3/6 410/3/6
f 410/3/6 409/3/6 411/3/6
f 406/3/6 410/3/6 412/3/6
f 410/1/6 411/1/6 412/1/6
f 412/1/6 411/1/6 413/1/6
f 411/3/6 409/3/6 414/3/6
f 414/3/6 409/3/6 415/3/6
f 406/3/6 412/3/6 416/3/6
f 412/3/6 413/3/6 416/3/6
f 413/1/6 411/1/6 417/1/6
f 416/3/6 413/3/6 417/3/6
f 406/3/6 416/3/6 418/3/6
f 416/1/6 417/1/6 418/1/6
f 417/1/6 411/1/6 419/1/6
f 418/1/6 417/1/6 419/1/6
f 411/3/6 414/3/6 419/3/6
f 414/1/6 415/1/6 420/1/6
f 419/3/6 414/3/6 420/3/6
f 420/1/6 415/1/6 421/1/6
f 406/3/6 418/3/6 422/3/6
f 418/3/6 419/3/6 422/3/6
f 420/3/6 421/3/6 422/3/6
f 419/3/6 420/3/6 422/3/6
f 422/3/6 421/3/6 423/3/6
f 423/3/6 421/3/6 424/3/6
f 424/3/6 421/3/6 425/3/6
f 423/3/6 424/3/6 426/3/6
f 424/1/6 425/1/6 426/1/6
f 425/3/6 421/3/6 427/3/6
f 426/1/6 425/1/6 427/1/6
f 427/3/6 421/3/6 428/3/6
f 427/1/6 428/1/6 429/1/6
f 428/3/6 421/3/6 430/3/6
f 429/1/6 428/1/6 430/1/6
f 429/3/6 430/3/6 431/3/6
f 430/3/6 421/3/6 431/3/6
f 431/3/6 421/3/6 432/3/6
f 422/1/6 423/1/6 433/1/6
f 423/3/6 426/3/6 434/3/6
f 433/1/6 423/1/6 434/1/6
f 426/3/6 427/3/6 434/3/6
f 427/1/6 429/1/6 435/1/6
f 434/3/6 427/3/6 435/3/6
f 433/3/6 434/3/6 435/3/6
f 429/3/6 431/3/6 436/3/6
f 435/1/6 429/1/6 436/1/6
f 433/3/6 435/3/6 437/3/6
f 435/3/6 436/3/6 437/3/6
f 436/3/6 431/3/6 438/3/6
f 437/3/6 436/3/6 438/3/6
f 433/3/6 437/3/6 439/3/6
f 437/1/6 438/1/6 439/1/6
f 438/3/6 431/3/6 440/3/6
f 439/1/6 438/1/6 440/1/6
f 433/3/6 439/3/6 441/3/6
f 439/3/6 440/3/6 441/3/6
f 441/3/6 440/3/6 442/3/6
f 431/1/6 432/1/6 443/1/6
f 442/3/6 440/3/6 443/3/6
f 440/3/6 431/3/6 443/3/6
f 443/1/6 432/1/6 444/1/6
f 441/1/6 442/1/6 445/1/6
f 433/3/6 441/3/6 445/3/6
f 443/3/6 444/3/6 446/3/6
f 445/1/6 442/1/6 446/1/6
f 442/3/6 443/3/6 446/3/6
f 446/3/6 444/3/6 447/3/6
f 447/3/6 444/3/6 448/3/6
f 448/3/6 444/3/6 449/3/6
f 433/3/6 445/3/6 450/3/6
f 445/3/6 446/3/6 450/3/6
f 450/3/6 446/3/6 451/3/6
f 446/1/6 447/1/6 452/1/6
f 451/3/6 446/3/6 452/3/6
f 447/3/6 448/3/6 453/3/6
f 452/1/6 447/1/6 453/1/6
f 450/1/6 451/1/6 454/1/6
f 451/3/6 452/3/6 455/3/6
f 454/1/6 451/1/6 455/1/6
f 452/3/6 453/3/6 455/3/6
f 455/3/6 453/3/6 456/3/6
f 453/3/6 448/3/6 457/3/6
f 456/3/6 453/3/6 457/3/6
f 457/3/6 448/3/6 458/3/6
f 448/1/6 449/1/6 459/1/6
f 458/3/6 448/3/6 459/3/6
f 455/3/6 456/3/6 460/3/6
f 454/3/6 455/3/6 460/3/6
f 456/1/6 457/1/6 461/1/6
f 460/3/6 456/3/6 461/3/6
f 457/3/6 458/3/6 462/3/6
f 461/1/6 457/1/6 462/1/6
f 459/1/6 449/1/6 463/1/6
f 458/1/6 459/1/6 463/1/6
f 463/1/6 449/1/6 464/1/6
f 454/3/6 460/3/6 465/3/6
f 460/1/6 461/1/6 466/1/6
f 465/3/6 460/3/6 466/3/6
f 461/3/6 462/3/6 467/3/6
f 466/1/6 461/1/6 467/1/6
f 465/1/6 466/1/6 468/1/6
f 466/3/6 467/3/6 469/3/6
f 468/1/6 466/1/6 469/1/6
f 467/3/6 462/3/6 470/3/6
f 469/3/6 467/3/6 470/3/6
f 468/3/6 469/3/6 471/3/6
f 469/1/6 470/1/6 472/1/6
f 471/3/6 469/3/6 472/3/6
f 470/3/6 462/3/6 473/3/6
f 472/1/6 470/1/6 473/1/6
f 462/3/6 458/3/6 474/3/6
f 473/3/6 462/3/6 474/3/6
f 458/1/6 463/1/6 474/1/6
f 463/3/6 464/3/6 475/3/6
f 474/1/6 463/1/6 475/1/6
f 475/3/6 464/3/6 476/3/6
f 472/2/6 473/2/6 477/2/6
f 471/2/6 472/2/6 477/2/6
f 475/2/6 476/2/6 477/2/6
f 474/2/6 475/2/6 477/2/6
f 473/2/6 474/2/6 477/2/6
f 477/2/6 476/2/6 478/2/6
