# MagicaVoxel @ Ephtracy

# group
o 

# material
mtllib Car1.mtl
usemtl palette

# normals
vn -1 0 0
vn 1 0 0
vn 0 0 1
vn 0 0 -1
vn 0 -1 0
vn 0 1 0

# texcoords
vt 0.0214844 0.5
vt 0.712891 0.5
vt 0.740234 0.5
vt 0.748047 0.5
vt 0.763672 0.5
vt 0.958984 0.5
vt 0.962891 0.5
vt 0.974609 0.5
vt 0.986328 0.5
vt 0.990234 0.5

# verts
v -1.9 1.6 1.5
v -1.9 1.6 0.9
v -1.9 1.8 1.5
v -1.9 1.8 0.9
v -1.7 0 2.3
v -1.7 0 1.3
v -1.7 0 -1
v -1.7 0 -2
v -1.7 0.2 2.1
v -1.7 0.2 1.5
v -1.7 0.2 -1.2
v -1.7 0.2 -1.8
v -1.7 0.8 2.1
v -1.7 0.8 1.5
v -1.7 0.8 -1.2
v -1.7 0.8 -1.8
v -1.7 1 2.3
v -1.7 1 1.3
v -1.7 1 -1
v -1.7 1 -2
v -1.6 0.3 3.6
v -1.6 0.3 2.3
v -1.6 0.3 1.3
v -1.6 0.3 -1
v -1.6 0.3 -2
v -1.6 0.3 -3.5
v -1.6 0.6 3.6
v -1.6 0.6 2.3
v -1.6 0.6 1.3
v -1.6 0.6 -1
v -1.6 0.6 -2
v -1.6 0.6 -3.5
v -1.6 1 2.3
v -1.6 1 1.3
v -1.6 1 -1
v -1.6 1 -2
v -1.6 1.3 3.6
v -1.6 1.3 -3.5
v -1.6 1.6 1.5
v -1.6 1.6 0.9
v -1.6 1.8 1.5
v -1.6 1.8 0.9
v -1.6 1.9 3.6
v -1.6 1.9 -3.5
v -1.2 1.1 3.8
v -1.2 1.1 3.6
v -1.2 1.3 3.6
v -1.2 1.5 3.8
v -1.2 1.5 3.6
v -1.2 1.9 1.9
v -1.2 1.9 1.7
v -1.2 1.9 -1
v -1.2 1.9 -1.4
v -1.2 1.9 -2.3
v -1.2 1.9 -2.6
v -1.2 3.4 1.7
v -1.2 3.4 -1
v -1.2 3.4 -1.4
v -1.2 3.4 -2.3
v -1.2 3.6 1.9
v -1.2 3.6 -2.6
v 0.4 1.1 3.8
v 0.4 1.1 3.6
v 0.4 1.5 3.8
v 0.4 1.5 3.6
v 1.2 0 -2
v 1.2 0 -3
v 1.2 0.3 -2
v 1.2 0.3 -3
v 1.3 0 2.3
v 1.3 0 1.3
v 1.3 0.3 2.3
v 1.3 0.3 1.3
v -1.3 0 2.3
v -1.3 0 1.3
v -1.3 0.3 2.3
v -1.3 0.3 1.3
v -1.2 0 -1
v -1.2 0 -2
v -1.2 0.3 -1
v -1.2 0.3 -2
v -0.4 1.1 3.8
v -0.4 1.1 3.6
v -0.4 1.5 3.8
v -0.4 1.5 3.6
v 1.2 1.1 3.8
v 1.2 1.1 3.6
v 1.2 1.3 3.6
v 1.2 1.5 3.8
v 1.2 1.5 3.6
v 1.2 1.9 1.9
v 1.2 1.9 1.6
v 1.2 1.9 -1.4
v 1.2 1.9 -1.7
v 1.2 1.9 -2.3
v 1.2 1.9 -2.6
v 1.2 3.4 1.6
v 1.2 3.4 -1.4
v 1.2 3.4 -1.7
v 1.2 3.4 -2.3
v 1.2 3.6 1.9
v 1.2 3.6 -2.6
v 1.6 0.3 3.6
v 1.6 0.3 2.3
v 1.6 0.3 1.3
v 1.6 0.3 -2
v 1.6 0.3 -3
v 1.6 0.3 -3.5
v 1.6 0.6 3.6
v 1.6 0.6 2.3
v 1.6 0.6 1.3
v 1.6 0.6 -2
v 1.6 0.6 -3
v 1.6 0.6 -3.5
v 1.6 1 2.3
v 1.6 1 1.3
v 1.6 1 -2
v 1.6 1 -3
v 1.6 1.3 3.6
v 1.6 1.3 -3.5
v 1.6 1.5 1.3
v 1.6 1.5 0.6
v 1.6 1.7 1.3
v 1.6 1.7 0.6
v 1.6 1.9 3.6
v 1.6 1.9 -3.5
v 1.7 0 2.3
v 1.7 0 1.3
v 1.7 0 -2
v 1.7 0 -3
v 1.7 0.2 2.1
v 1.7 0.2 1.5
v 1.7 0.2 -2.2
v 1.7 0.2 -2.8
v 1.7 0.8 2.1
v 1.7 0.8 1.5
v 1.7 0.8 -2.2
v 1.7 0.8 -2.8
v 1.7 1 2.3
v 1.7 1 1.3
v 1.7 1 -2
v 1.7 1 -3
v 1.9 1.5 1.3
v 1.9 1.5 0.6
v 1.9 1.7 1.3
v 1.9 1.7 0.6
v -1.2 1.1 3.8
v -1.2 1.5 3.8
v -0.4 1.1 3.8
v -0.4 1.5 3.8
v 0.4 1.1 3.8
v 0.4 1.5 3.8
v 1.2 1.1 3.8
v 1.2 1.5 3.8
v -1.6 0.3 3.6
v -1.6 0.6 3.6
v -1.6 1.3 3.6
v -1.6 1.9 3.6
v -1.2 1.1 3.6
v -1.2 1.3 3.6
v -1.2 1.5 3.6
v -0.4 0.6 3.6
v -0.4 1.1 3.6
v -0.4 1.5 3.6
v -0.4 1.9 3.6
v 0.4 0.6 3.6
v 0.4 1.1 3.6
v 0.4 1.5 3.6
v 0.4 1.9 3.6
v 1.2 1.1 3.6
v 1.2 1.3 3.6
v 1.2 1.5 3.6
v 1.6 0.3 3.6
v 1.6 0.6 3.6
v 1.6 1.3 3.6
v 1.6 1.9 3.6
v -1.7 0 2.3
v -1.7 1 2.3
v -1.6 0.3 2.3
v -1.6 0.6 2.3
v -1.6 1 2.3
v -1.5 0.3 2.3
v -1.3 0 2.3
v -1.3 0.3 2.3
v 1.3 0 2.3
v 1.3 0.3 2.3
v 1.5 0.3 2.3
v 1.6 0.3 2.3
v 1.6 0.6 2.3
v 1.6 1 2.3
v 1.7 0 2.3
v 1.7 1 2.3
v -1.2 1.9 1.9
v -1.2 3.6 1.9
v -1 1.9 1.9
v -1 3.4 1.9
v -0.4 1.9 1.9
v 0.4 1.9 1.9
v 1 1.9 1.9
v 1 3.4 1.9
v 1.2 1.9 1.9
v 1.2 3.6 1.9
v -1.9 1.6 1.5
v -1.9 1.8 1.5
v -1.6 1.6 1.5
v -1.6 1.8 1.5
v 1.6 1.5 1.3
v 1.6 1.7 1.3
v 1.9 1.5 1.3
v 1.9 1.7 1.3
v -1.7 0 -1
v -1.7 1 -1
v -1.6 0.3 -1
v -1.6 0.6 -1
v -1.6 1 -1
v -1.5 0.3 -1
v -1.2 0 -1
v -1.2 0.3 -1
v 1.2 0 -2
v 1.2 0.3 -2
v 1.5 0.3 -2
v 1.6 0.3 -2
v 1.6 0.6 -2
v 1.6 1 -2
v 1.7 0 -2
v 1.7 1 -2
v -1.7 0 1.3
v -1.7 1 1.3
v -1.6 0.3 1.3
v -1.6 0.6 1.3
v -1.6 1 1.3
v -1.5 0.3 1.3
v -1.3 0 1.3
v -1.3 0.3 1.3
v 1.3 0 1.3
v 1.3 0.3 1.3
v 1.5 0.3 1.3
v 1.6 0.3 1.3
v 1.6 0.6 1.3
v 1.6 1 1.3
v 1.7 0 1.3
v 1.7 1 1.3
v -1.9 1.6 0.9
v -1.9 1.8 0.9
v -1.6 1.6 0.9
v -1.6 1.8 0.9
v 1.6 1.5 0.6
v 1.6 1.7 0.6
v 1.9 1.5 0.6
v 1.9 1.7 0.6
v -1.7 0 -2
v -1.7 1 -2
v -1.6 0.3 -2
v -1.6 0.6 -2
v -1.6 1 -2
v -1.2 0 -2
v -1.2 0.3 -2
v -1.2 1.9 -2.6
v -1.2 3.6 -2.6
v -0.4 1.9 -2.6
v 0.4 1.9 -2.6
v 1.2 1.9 -2.6
v 1.2 3.6 -2.6
v 1.2 0 -3
v 1.2 0.3 -3
v 1.6 0.3 -3
v 1.6 0.6 -3
v 1.6 1 -3
v 1.7 0 -3
v 1.7 1 -3
v -1.6 0.3 -3.5
v -1.6 0.6 -3.5
v -1.6 1.3 -3.5
v -1.6 1.9 -3.5
v -0.4 0.6 -3.5
v -0.4 1.3 -3.5
v -0.4 1.9 -3.5
v 0.4 0.6 -3.5
v 0.4 1.3 -3.5
v 0.4 1.9 -3.5
v 1.6 0.3 -3.5
v 1.6 0.6 -3.5
v 1.6 1.3 -3.5
v 1.6 1.9 -3.5
v -1.7 0 2.3
v -1.3 0 2.3
v 1.3 0 2.3
v 1.7 0 2.3
v -1.7 0 1.3
v -1.3 0 1.3
v 1.3 0 1.3
v 1.7 0 1.3
v -1.7 0 -1
v -1.2 0 -1
v -1.7 0 -2
v -1.2 0 -2
v 1.2 0 -2
v 1.7 0 -2
v 1.2 0 -3
v 1.7 0 -3
v -1.6 0.3 3.6
v 1.6 0.3 3.6
v -1.5 0.3 3.5
v 1.5 0.3 3.5
v -1.6 0.3 2.3
v -1.5 0.3 2.3
v -1.3 0.3 2.3
v 1.3 0.3 2.3
v 1.5 0.3 2.3
v 1.6 0.3 2.3
v -1.6 0.3 1.3
v -1.5 0.3 1.3
v -1.3 0.3 1.3
v 1.3 0.3 1.3
v 1.5 0.3 1.3
v 1.6 0.3 1.3
v -1.6 0.3 -1
v -1.5 0.3 -1
v -1.2 0.3 -1
v -1.6 0.3 -2
v -1.2 0.3 -2
v 1.2 0.3 -2
v 1.5 0.3 -2
v 1.6 0.3 -2
v 1.2 0.3 -3
v 1.6 0.3 -3
v -1.6 0.3 -3.5
v 1.6 0.3 -3.5
v -1.2 1.1 3.8
v -0.4 1.1 3.8
v 0.4 1.1 3.8
v 1.2 1.1 3.8
v -1.2 1.1 3.6
v -0.4 1.1 3.6
v 0.4 1.1 3.6
v 1.2 1.1 3.6
v 1.6 1.5 1.3
v 1.9 1.5 1.3
v 1.6 1.5 0.6
v 1.9 1.5 0.6
v -1.9 1.6 1.5
v -1.6 1.6 1.5
v -1.9 1.6 0.9
v -1.6 1.6 0.9
v -1.7 1 2.3
v -1.6 1 2.3
v 1.6 1 2.3
v 1.7 1 2.3
v -1.7 1 1.3
v -1.6 1 1.3
v 1.6 1 1.3
v 1.7 1 1.3
v -1.7 1 -1
v -1.6 1 -1
v -1.7 1 -2
v -1.6 1 -2
v 1.6 1 -2
v 1.7 1 -2
v 1.6 1 -3
v 1.7 1 -3
v -1.2 1.5 3.8
v -0.4 1.5 3.8
v 0.4 1.5 3.8
v 1.2 1.5 3.8
v -1.2 1.5 3.6
v -0.4 1.5 3.6
v 0.4 1.5 3.6
v 1.2 1.5 3.6
v 1.6 1.7 1.3
v 1.9 1.7 1.3
v 1.6 1.7 0.6
v 1.9 1.7 0.6
v -1.9 1.8 1.5
v -1.6 1.8 1.5
v -1.9 1.8 0.9
v -1.6 1.8 0.9
v -1.6 1.9 3.6
v -0.4 1.9 3.6
v 0.4 1.9 3.6
v 1.6 1.9 3.6
v -1.2 1.9 3.3
v -0.9 1.9 3.3
v -0.7 1.9 3.3
v -0.4 1.9 3.3
v 0.4 1.9 3.3
v 0.7 1.9 3.3
v 0.9 1.9 3.3
v 1.2 1.9 3.3
v -0.7 1.9 3.1
v -0.4 1.9 3.1
v 0.4 1.9 3.1
v 0.7 1.9 3.1
v -1.2 1.9 2.4
v -0.9 1.9 2.4
v 0.9 1.9 2.4
v 1.2 1.9 2.4
v -1.2 1.9 1.9
v -1 1.9 1.9
v -0.4 1.9 1.9
v 0.4 1.9 1.9
v 1 1.9 1.9
v 1.2 1.9 1.9
v -1.2 1.9 1.7
v 1.2 1.9 1.6
v -1.2 1.9 -1
v -1.2 1.9 -1.4
v 1.2 1.9 -1.4
v 1.2 1.9 -1.7
v -1.2 1.9 -2.3
v 1.2 1.9 -2.3
v -1.2 1.9 -2.6
v -0.4 1.9 -2.6
v 0.4 1.9 -2.6
v 1.2 1.9 -2.6
v -1.6 1.9 -3.5
v -0.4 1.9 -3.5
v 0.4 1.9 -3.5
v 1.6 1.9 -3.5
v -1.2 3.6 1.9
v 1.2 3.6 1.9
v -0.7 3.6 1
v 0.7 3.6 1
v -0.7 3.6 -1.5
v 0.7 3.6 -1.5
v -1.2 3.6 -2.6
v 1.2 3.6 -2.6

# faces
f 3/5/1 2/5/1 1/5/1
f 4/5/1 2/5/1 3/5/1
f 9/9/1 6/9/1 5/9/1
f 10/9/1 6/9/1 9/9/1
f 11/9/1 8/9/1 7/9/1
f 12/9/1 8/9/1 11/9/1
f 13/9/1 9/9/1 5/9/1
f 13/7/1 10/7/1 9/7/1
f 14/9/1 6/9/1 10/9/1
f 14/7/1 10/7/1 13/7/1
f 15/7/1 12/7/1 11/7/1
f 15/9/1 11/9/1 7/9/1
f 16/9/1 8/9/1 12/9/1
f 16/7/1 12/7/1 15/7/1
f 17/9/1 13/9/1 5/9/1
f 17/9/1 14/9/1 13/9/1
f 18/9/1 6/9/1 14/9/1
f 18/9/1 14/9/1 17/9/1
f 19/9/1 15/9/1 7/9/1
f 19/9/1 16/9/1 15/9/1
f 20/9/1 8/9/1 16/9/1
f 20/9/1 16/9/1 19/9/1
f 27/8/1 22/8/1 21/8/1
f 28/8/1 22/8/1 27/8/1
f 29/8/1 24/8/1 23/8/1
f 30/8/1 24/8/1 29/8/1
f 31/8/1 26/8/1 25/8/1
f 32/8/1 26/8/1 31/8/1
f 33/4/1 28/4/1 27/4/1
f 34/4/1 30/4/1 29/4/1
f 35/4/1 30/4/1 34/4/1
f 36/4/1 32/4/1 31/4/1
f 37/4/1 33/4/1 27/4/1
f 37/4/1 36/4/1 35/4/1
f 37/4/1 35/4/1 34/4/1
f 37/4/1 34/4/1 33/4/1
f 38/4/1 32/4/1 36/4/1
f 38/4/1 36/4/1 37/4/1
f 39/3/1 38/3/1 37/3/1
f 40/3/1 38/3/1 39/3/1
f 41/3/1 39/3/1 37/3/1
f 42/3/1 38/3/1 40/3/1
f 43/3/1 41/3/1 37/3/1
f 43/3/1 42/3/1 41/3/1
f 44/3/1 38/3/1 42/3/1
f 44/3/1 42/3/1 43/3/1
f 47/1/1 46/1/1 45/1/1
f 48/1/1 47/1/1 45/1/1
f 49/1/1 47/1/1 48/1/1
f 56/6/1 51/6/1 50/6/1
f 56/10/1 52/10/1 51/10/1
f 57/6/1 53/6/1 52/6/1
f 57/10/1 52/10/1 56/10/1
f 58/10/1 54/10/1 53/10/1
f 58/6/1 53/6/1 57/6/1
f 59/6/1 55/6/1 54/6/1
f 59/10/1 54/10/1 58/10/1
f 60/6/1 58/6/1 57/6/1
f 60/6/1 57/6/1 56/6/1
f 60/6/1 59/6/1 58/6/1
f 60/6/1 56/6/1 50/6/1
f 61/6/1 55/6/1 59/6/1
f 61/6/1 59/6/1 60/6/1
f 64/1/1 63/1/1 62/1/1
f 65/1/1 63/1/1 64/1/1
f 68/9/1 67/9/1 66/9/1
f 69/9/1 67/9/1 68/9/1
f 72/9/1 71/9/1 70/9/1
f 73/9/1 71/9/1 72/9/1
f 74/9/2 75/9/2 76/9/2
f 76/9/2 75/9/2 77/9/2
f 78/9/2 79/9/2 80/9/2
f 80/9/2 79/9/2 81/9/2
f 82/1/2 83/1/2 84/1/2
f 84/1/2 83/1/2 85/1/2
f 86/1/2 87/1/2 88/1/2
f 86/1/2 88/1/2 89/1/2
f 89/1/2 88/1/2 90/1/2
f 91/6/2 92/6/2 97/6/2
f 92/10/2 93/10/2 97/10/2
f 93/6/2 94/6/2 98/6/2
f 97/10/2 93/10/2 98/10/2
f 94/10/2 95/10/2 99/10/2
f 98/6/2 94/6/2 99/6/2
f 95/6/2 96/6/2 100/6/2
f 99/10/2 95/10/2 100/10/2
f 98/6/2 99/6/2 101/6/2
f 97/6/2 98/6/2 101/6/2
f 99/6/2 100/6/2 101/6/2
f 91/6/2 97/6/2 101/6/2
f 100/6/2 96/6/2 102/6/2
f 101/6/2 100/6/2 102/6/2
f 103/8/2 104/8/2 109/8/2
f 109/8/2 104/8/2 110/8/2
f 105/8/2 106/8/2 111/8/2
f 111/8/2 106/8/2 112/8/2
f 107/8/2 108/8/2 113/8/2
f 113/8/2 108/8/2 114/8/2
f 109/4/2 110/4/2 115/4/2
f 111/4/2 112/4/2 116/4/2
f 116/4/2 112/4/2 117/4/2
f 113/4/2 114/4/2 118/4/2
f 109/4/2 115/4/2 119/4/2
f 117/4/2 118/4/2 119/4/2
f 116/4/2 117/4/2 119/4/2
f 115/4/2 116/4/2 119/4/2
f 118/4/2 114/4/2 120/4/2
f 119/4/2 118/4/2 120/4/2
f 119/3/2 120/3/2 121/3/2
f 121/3/2 120/3/2 122/3/2
f 119/3/2 121/3/2 123/3/2
f 122/3/2 120/3/2 124/3/2
f 119/3/2 123/3/2 125/3/2
f 123/3/2 124/3/2 125/3/2
f 124/3/2 120/3/2 126/3/2
f 125/3/2 124/3/2 126/3/2
f 127/9/2 128/9/2 131/9/2
f 131/9/2 128/9/2 132/9/2
f 129/9/2 130/9/2 133/9/2
f 133/9/2 130/9/2 134/9/2
f 127/9/2 131/9/2 135/9/2
f 131/7/2 132/7/2 135/7/2
f 132/9/2 128/9/2 136/9/2
f 135/7/2 132/7/2 136/7/2
f 133/7/2 134/7/2 137/7/2
f 129/9/2 133/9/2 137/9/2
f 134/9/2 130/9/2 138/9/2
f 137/7/2 134/7/2 138/7/2
f 127/9/2 135/9/2 139/9/2
f 135/9/2 136/9/2 139/9/2
f 136/9/2 128/9/2 140/9/2
f 139/9/2 136/9/2 140/9/2
f 129/9/2 137/9/2 141/9/2
f 137/9/2 138/9/2 141/9/2
f 138/9/2 130/9/2 142/9/2
f 141/9/2 138/9/2 142/9/2
f 143/5/2 144/5/2 145/5/2
f 145/5/2 144/5/2 146/5/2
f 149/1/3 148/1/3 147/1/3
f 150/1/3 148/1/3 149/1/3
f 153/1/3 152/1/3 151/1/3
f 154/1/3 152/1/3 153/1/3
f 159/4/3 157/4/3 156/4/3
f 160/3/3 158/3/3 157/3/3
f 160/4/3 157/4/3 159/4/3
f 161/3/3 158/3/3 160/3/3
f 162/8/3 156/8/3 155/8/3
f 162/4/3 159/4/3 156/4/3
f 163/4/3 159/4/3 162/4/3
f 164/3/3 158/3/3 161/3/3
f 165/3/3 158/3/3 164/3/3
f 166/2/3 163/2/3 162/2/3
f 166/8/3 162/8/3 155/8/3
f 166/2/3 165/2/3 164/2/3
f 166/2/3 164/2/3 163/2/3
f 167/2/3 165/2/3 166/2/3
f 168/2/3 165/2/3 167/2/3
f 169/2/3 165/2/3 168/2/3
f 170/4/3 167/4/3 166/4/3
f 172/3/3 169/3/3 168/3/3
f 173/8/3 166/8/3 155/8/3
f 174/4/3 171/4/3 170/4/3
f 174/8/3 166/8/3 173/8/3
f 174/4/3 170/4/3 166/4/3
f 175/3/3 172/3/3 171/3/3
f 175/4/3 171/4/3 174/4/3
f 176/3/3 169/3/3 172/3/3
f 176/3/3 172/3/3 175/3/3
f 179/9/3 178/9/3 177/9/3
f 180/9/3 178/9/3 179/9/3
f 181/9/3 178/9/3 180/9/3
f 182/9/3 179/9/3 177/9/3
f 183/9/3 182/9/3 177/9/3
f 184/9/3 182/9/3 183/9/3
f 187/9/3 186/9/3 185/9/3
f 188/9/3 187/9/3 185/9/3
f 191/9/3 188/9/3 185/9/3
f 191/9/3 190/9/3 189/9/3
f 191/9/3 189/9/3 188/9/3
f 192/9/3 190/9/3 191/9/3
f 195/6/3 194/6/3 193/6/3
f 196/6/3 194/6/3 195/6/3
f 197/10/3 196/10/3 195/10/3
f 198/10/3 196/10/3 197/10/3
f 199/10/3 196/10/3 198/10/3
f 200/6/3 194/6/3 196/6/3
f 200/10/3 196/10/3 199/10/3
f 201/6/3 200/6/3 199/6/3
f 202/6/3 194/6/3 200/6/3
f 202/6/3 200/6/3 201/6/3
f 205/5/3 204/5/3 203/5/3
f 206/5/3 204/5/3 205/5/3
f 209/5/3 208/5/3 207/5/3
f 210/5/3 208/5/3 209/5/3
f 213/9/3 212/9/3 211/9/3
f 214/9/3 212/9/3 213/9/3
f 215/9/3 212/9/3 214/9/3
f 216/9/3 213/9/3 211/9/3
f 217/9/3 216/9/3 211/9/3
f 218/9/3 216/9/3 217/9/3
f 221/9/3 220/9/3 219/9/3
f 222/9/3 221/9/3 219/9/3
f 225/9/3 222/9/3 219/9/3
f 225/9/3 224/9/3 223/9/3
f 225/9/3 223/9/3 222/9/3
f 226/9/3 224/9/3 225/9/3
f 227/9/4 228/9/4 229/9/4
f 229/9/4 228/9/4 230/9/4
f 230/9/4 228/9/4 231/9/4
f 227/9/4 229/9/4 232/9/4
f 227/9/4 232/9/4 233/9/4
f 233/9/4 232/9/4 234/9/4
f 235/9/4 236/9/4 237/9/4
f 235/9/4 237/9/4 238/9/4
f 235/9/4 238/9/4 241/9/4
f 239/9/4 240/9/4 241/9/4
f 238/9/4 239/9/4 241/9/4
f 241/9/4 240/9/4 242/9/4
f 243/5/4 244/5/4 245/5/4
f 245/5/4 244/5/4 246/5/4
f 247/5/4 248/5/4 249/5/4
f 249/5/4 248/5/4 250/5/4
f 251/9/4 252/9/4 253/9/4
f 253/9/4 252/9/4 254/9/4
f 254/9/4 252/9/4 255/9/4
f 251/9/4 253/9/4 256/9/4
f 256/9/4 253/9/4 257/9/4
f 258/6/4 259/6/4 260/6/4
f 260/6/4 259/6/4 261/6/4
f 261/6/4 259/6/4 262/6/4
f 262/6/4 259/6/4 263/6/4
f 264/9/4 265/9/4 266/9/4
f 264/9/4 266/9/4 269/9/4
f 267/9/4 268/9/4 269/9/4
f 266/9/4 267/9/4 269/9/4
f 269/9/4 268/9/4 270/9/4
f 271/8/4 272/8/4 275/8/4
f 272/4/4 273/4/4 275/4/4
f 273/3/4 274/3/4 276/3/4
f 275/4/4 273/4/4 276/4/4
f 276/3/4 274/3/4 277/3/4
f 271/8/4 275/8/4 278/8/4
f 275/2/4 276/2/4 278/2/4
f 276/2/4 277/2/4 278/2/4
f 278/2/4 277/2/4 279/2/4
f 279/2/4 277/2/4 280/2/4
f 271/8/4 278/8/4 281/8/4
f 278/4/4 279/4/4 282/4/4
f 281/8/4 278/8/4 282/8/4
f 279/3/4 280/3/4 283/3/4
f 282/4/4 279/4/4 283/4/4
f 283/3/4 280/3/4 284/3/4
f 289/9/5 286/9/5 285/9/5
f 290/9/5 286/9/5 289/9/5
f 291/9/5 288/9/5 287/9/5
f 292/9/5 288/9/5 291/9/5
f 295/9/5 294/9/5 293/9/5
f 296/9/5 294/9/5 295/9/5
f 299/9/5 298/9/5 297/9/5
f 300/9/5 298/9/5 299/9/5
f 303/8/5 302/8/5 301/8/5
f 304/8/5 302/8/5 303/8/5
f 305/8/5 303/8/5 301/8/5
f 306/3/5 304/3/5 303/3/5
f 306/8/5 303/8/5 305/8/5
f 307/3/5 304/3/5 306/3/5
f 308/3/5 304/3/5 307/3/5
f 309/8/5 302/8/5 304/8/5
f 309/3/5 304/3/5 308/3/5
f 310/8/5 302/8/5 309/8/5
f 313/3/5 308/3/5 307/3/5
f 314/3/5 308/3/5 313/3/5
f 317/8/5 312/8/5 311/8/5
f 318/3/5 313/3/5 312/3/5
f 318/8/5 312/8/5 317/8/5
f 318/3/5 314/3/5 313/3/5
f 318/3/5 315/3/5 314/3/5
f 319/3/5 315/3/5 318/3/5
f 321/3/5 315/3/5 319/3/5
f 322/3/5 315/3/5 321/3/5
f 323/8/5 316/8/5 315/8/5
f 323/3/5 315/3/5 322/3/5
f 324/8/5 316/8/5 323/8/5
f 325/8/5 322/8/5 321/8/5
f 325/8/5 321/8/5 320/8/5
f 327/8/5 325/8/5 320/8/5
f 327/8/5 326/8/5 325/8/5
f 328/8/5 326/8/5 327/8/5
f 333/1/5 330/1/5 329/1/5
f 334/1/5 330/1/5 333/1/5
f 335/1/5 332/1/5 331/1/5
f 336/1/5 332/1/5 335/1/5
f 339/5/5 338/5/5 337/5/5
f 340/5/5 338/5/5 339/5/5
f 343/5/5 342/5/5 341/5/5
f 344/5/5 342/5/5 343/5/5
f 345/9/6 346/9/6 349/9/6
f 349/9/6 346/9/6 350/9/6
f 347/9/6 348/9/6 351/9/6
f 351/9/6 348/9/6 352/9/6
f 353/9/6 354/9/6 355/9/6
f 355/9/6 354/9/6 356/9/6
f 357/9/6 358/9/6 359/9/6
f 359/9/6 358/9/6 360/9/6
f 361/1/6 362/1/6 365/1/6
f 365/1/6 362/1/6 366/1/6
f 363/1/6 364/1/6 367/1/6
f 367/1/6 364/1/6 368/1/6
f 369/5/6 370/5/6 371/5/6
f 371/5/6 370/5/6 372/5/6
f 373/5/6 374/5/6 375/5/6
f 375/5/6 374/5/6 376/5/6
f 377/3/6 378/3/6 381/3/6
f 381/3/6 378/3/6 382/3/6
f 382/3/6 378/3/6 383/3/6
f 378/2/6 379/2/6 384/2/6
f 383/3/6 378/3/6 384/3/6
f 379/3/6 380/3/6 385/3/6
f 384/2/6 379/2/6 385/2/6
f 385/3/6 380/3/6 386/3/6
f 386/3/6 380/3/6 387/3/6
f 387/3/6 380/3/6 388/3/6
f 383/2/6 384/2/6 389/2/6
f 382/3/6 383/3/6 389/3/6
f 384/2/6 385/2/6 389/2/6
f 385/2/6 386/2/6 389/2/6
f 389/2/6 386/2/6 390/2/6
f 390/2/6 386/2/6 391/2/6
f 386/3/6 387/3/6 392/3/6
f 391/2/6 386/2/6 392/2/6
f 377/3/6 381/3/6 393/3/6
f 381/2/6 382/2/6 393/2/6
f 382/3/6 389/3/6 394/3/6
f 393/2/6 382/2/6 394/2/6
f 389/3/6 390/3/6 394/3/6
f 387/2/6 388/2/6 395/2/6
f 392/3/6 387/3/6 395/3/6
f 391/3/6 392/3/6 395/3/6
f 388/3/6 380/3/6 396/3/6
f 395/2/6 388/2/6 396/2/6
f 393/3/6 394/3/6 397/3/6
f 377/3/6 393/3/6 397/3/6
f 397/3/6 394/3/6 398/3/6
f 394/3/6 390/3/6 399/3/6
f 398/3/6 394/3/6 399/3/6
f 390/2/6 391/2/6 399/2/6
f 391/3/6 395/3/6 400/3/6
f 399/2/6 391/2/6 400/2/6
f 395/3/6 396/3/6 400/3/6
f 400/3/6 396/3/6 401/3/6
f 396/3/6 380/3/6 402/3/6
f 401/3/6 396/3/6 402/3/6
f 377/3/6 397/3/6 403/3/6
f 402/3/6 380/3/6 404/3/6
f 377/3/6 403/3/6 405/3/6
f 377/3/6 405/3/6 406/3/6
f 404/3/6 380/3/6 407/3/6
f 407/3/6 380/3/6 408/3/6
f 377/3/6 406/3/6 409/3/6
f 408/3/6 380/3/6 410/3/6
f 377/3/6 409/3/6 411/3/6
f 410/3/6 380/3/6 414/3/6
f 377/3/6 411/3/6 415/3/6
f 411/3/6 412/3/6 415/3/6
f 412/2/6 413/2/6 416/2/6
f 415/3/6 412/3/6 416/3/6
f 413/3/6 414/3/6 417/3/6
f 416/2/6 413/2/6 417/2/6
f 414/3/6 380/3/6 418/3/6
f 417/3/6 414/3/6 418/3/6
f 419/6/6 420/6/6 421/6/6
f 421/6/6 420/6/6 422/6/6
f 419/6/6 421/6/6 423/6/6
f 421/7/6 422/7/6 423/7/6
f 422/6/6 420/6/6 424/6/6
f 423/7/6 422/7/6 424/7/6
f 419/6/6 423/6/6 425/6/6
f 423/6/6 424/6/6 425/6/6
f 424/6/6 420/6/6 426/6/6
f 425/6/6 424/6/6 426/6/6
